[19/Oct/2015 05:03:05] DEBUG [django.db.backends:89] (0.001) SET SQL_AUTO_IS_NULL = 0; args=None
[19/Oct/2015 05:03:05] DEBUG [django.db.backends:89] (0.002) SELECT `agglobal_message`.`id`, `agglobal_message`.`subject`, `agglobal_message`.`body`, `agglobal_message`.`sender`, `agglobal_message`.`receiver`, `agglobal_message`.`read`, `agglobal_message`.`deleted`, `agglobal_message`.`senttime`, `agglobal_message`.`parentid` FROM `agglobal_message` WHERE (`agglobal_message`.`deleted` = 'F' AND `agglobal_message`.`receiver` = 45) ORDER BY `agglobal_message`.`senttime` ASC; args=('F', 45)
[19/Oct/2015 05:03:05] DEBUG [django.db.backends:89] (0.002) SELECT `auth_user`.`id`, `auth_user`.`password`, `auth_user`.`last_login`, `auth_user`.`is_superuser`, `auth_user`.`username`, `auth_user`.`first_name`, `auth_user`.`last_name`, `auth_user`.`email`, `auth_user`.`is_staff`, `auth_user`.`is_active`, `auth_user`.`date_joined` FROM `auth_user` WHERE `auth_user`.`id` = 133; args=(133,)
[19/Oct/2015 05:03:05] DEBUG [django.db.backends:89] (0.001) SELECT (1) AS `a` FROM `agglobal_userprofile` WHERE `agglobal_userprofile`.`userid` = 133 LIMIT 1; args=(133,)
[19/Oct/2015 05:03:05] DEBUG [django.db.backends:89] (0.002) SELECT `agglobal_userprofile`.`user_profile_id`, `agglobal_userprofile`.`first_name`, `agglobal_userprofile`.`last_name`, `agglobal_userprofile`.`email`, `agglobal_userprofile`.`company_name`, `agglobal_userprofile`.`domain`, `agglobal_userprofile`.`introduction`, `agglobal_userprofile`.`job_title`, `agglobal_userprofile`.`personal_profile`, `agglobal_userprofile`.`city`, `agglobal_userprofile`.`country`, `agglobal_userprofile`.`industry`, `agglobal_userprofile`.`industryofconcern`, `agglobal_userprofile`.`profession`, `agglobal_userprofile`.`profile_img`, `agglobal_userprofile`.`activation_key`, `agglobal_userprofile`.`key_expires`, `agglobal_userprofile`.`userid` FROM `agglobal_userprofile` WHERE `agglobal_userprofile`.`userid` = 133 LIMIT 1; args=(133,)
[19/Oct/2015 05:03:05] DEBUG [django.db.backends:89] (0.002) SELECT `agglobal_userprofile`.`user_profile_id`, `agglobal_userprofile`.`first_name`, `agglobal_userprofile`.`last_name`, `agglobal_userprofile`.`email`, `agglobal_userprofile`.`company_name`, `agglobal_userprofile`.`domain`, `agglobal_userprofile`.`introduction`, `agglobal_userprofile`.`job_title`, `agglobal_userprofile`.`personal_profile`, `agglobal_userprofile`.`city`, `agglobal_userprofile`.`country`, `agglobal_userprofile`.`industry`, `agglobal_userprofile`.`industryofconcern`, `agglobal_userprofile`.`profession`, `agglobal_userprofile`.`profile_img`, `agglobal_userprofile`.`activation_key`, `agglobal_userprofile`.`key_expires`, `agglobal_userprofile`.`userid` FROM `agglobal_userprofile` WHERE `agglobal_userprofile`.`userid` = 133; args=(133,)
[19/Oct/2015 05:03:05] DEBUG [django.db.backends:89] (0.002) SELECT `auth_user`.`id`, `auth_user`.`password`, `auth_user`.`last_login`, `auth_user`.`is_superuser`, `auth_user`.`username`, `auth_user`.`first_name`, `auth_user`.`last_name`, `auth_user`.`email`, `auth_user`.`is_staff`, `auth_user`.`is_active`, `auth_user`.`date_joined` FROM `auth_user` WHERE `auth_user`.`id` = 45; args=(45,)
[19/Oct/2015 05:03:05] DEBUG [django.db.backends:89] (0.001) SELECT (1) AS `a` FROM `agglobal_userprofile` WHERE `agglobal_userprofile`.`userid` = 45 LIMIT 1; args=(45,)
[19/Oct/2015 05:03:05] DEBUG [django.db.backends:89] (0.002) SELECT `agglobal_userprofile`.`user_profile_id`, `agglobal_userprofile`.`first_name`, `agglobal_userprofile`.`last_name`, `agglobal_userprofile`.`email`, `agglobal_userprofile`.`company_name`, `agglobal_userprofile`.`domain`, `agglobal_userprofile`.`introduction`, `agglobal_userprofile`.`job_title`, `agglobal_userprofile`.`personal_profile`, `agglobal_userprofile`.`city`, `agglobal_userprofile`.`country`, `agglobal_userprofile`.`industry`, `agglobal_userprofile`.`industryofconcern`, `agglobal_userprofile`.`profession`, `agglobal_userprofile`.`profile_img`, `agglobal_userprofile`.`activation_key`, `agglobal_userprofile`.`key_expires`, `agglobal_userprofile`.`userid` FROM `agglobal_userprofile` WHERE `agglobal_userprofile`.`userid` = 45; args=(45,)
[19/Oct/2015 05:07:04] DEBUG [django.db.backends:89] (0.000) SET SQL_AUTO_IS_NULL = 0; args=None
[19/Oct/2015 05:07:04] DEBUG [django.db.backends:89] (0.002) SELECT `auth_user`.`id`, `auth_user`.`password`, `auth_user`.`last_login`, `auth_user`.`is_superuser`, `auth_user`.`username`, `auth_user`.`first_name`, `auth_user`.`last_name`, `auth_user`.`email`, `auth_user`.`is_staff`, `auth_user`.`is_active`, `auth_user`.`date_joined` FROM `auth_user` WHERE `auth_user`.`id` = 45; args=(45,)
[19/Oct/2015 05:07:04] DEBUG [django.db.backends:89] (0.002) SELECT `agglobal_userprofile`.`user_profile_id`, `agglobal_userprofile`.`first_name`, `agglobal_userprofile`.`last_name`, `agglobal_userprofile`.`email`, `agglobal_userprofile`.`company_name`, `agglobal_userprofile`.`domain`, `agglobal_userprofile`.`introduction`, `agglobal_userprofile`.`job_title`, `agglobal_userprofile`.`personal_profile`, `agglobal_userprofile`.`city`, `agglobal_userprofile`.`country`, `agglobal_userprofile`.`industry`, `agglobal_userprofile`.`industryofconcern`, `agglobal_userprofile`.`profession`, `agglobal_userprofile`.`profile_img`, `agglobal_userprofile`.`activation_key`, `agglobal_userprofile`.`key_expires`, `agglobal_userprofile`.`userid` FROM `agglobal_userprofile` WHERE `agglobal_userprofile`.`userid` = 45; args=(45,)
[19/Oct/2015 05:07:04] DEBUG [django.db.backends:89] (0.001) SELECT COUNT('*') AS `__count` FROM `agglobal_message` WHERE (`agglobal_message`.`read` = 'F' AND `agglobal_message`.`receiver` = 45); args=('*', 'F', 45)
[19/Oct/2015 05:07:04] DEBUG [django.db.backends:89] (0.001) SELECT `agglobal_investorprofile`.`investor_id`, `agglobal_investorprofile`.`first_name`, `agglobal_investorprofile`.`last_name`, `agglobal_investorprofile`.`email`, `agglobal_investorprofile`.`country`, `agglobal_investorprofile`.`city`, `agglobal_investorprofile`.`industryofconcern`, `agglobal_investorprofile`.`company_name`, `agglobal_investorprofile`.`job_title`, `agglobal_investorprofile`.`profession`, `agglobal_investorprofile`.`industry`, `agglobal_investorprofile`.`introduction`, `agglobal_investorprofile`.`personal_profile`, `agglobal_investorprofile`.`profile_img`, `agglobal_investorprofile`.`investment_field`, `agglobal_investorprofile`.`investment_location`, `agglobal_investorprofile`.`investment_budget`, `agglobal_investorprofile`.`investment_angel_status`, `agglobal_investorprofile`.`investment_pre_a_status`, `agglobal_investorprofile`.`investment_a_status`, `agglobal_investorprofile`.`investment_b_status`, `agglobal_investorprofile`.`investment_b_after_status`, `agglobal_investorprofile`.`activation_key`, `agglobal_investorprofile`.`key_expires`, `agglobal_investorprofile`.`userid`, `agglobal_investorprofile`.`certified` FROM `agglobal_investorprofile` WHERE `agglobal_investorprofile`.`userid` = 45; args=(45,)
[19/Oct/2015 05:07:04] DEBUG [django.db.backends:89] (0.002) SELECT `agglobal_company`.`company_id`, `agglobal_company`.`project_name`, `agglobal_company`.`description`, `agglobal_company`.`location`, `agglobal_company`.`industry`, `agglobal_company`.`invested_status`, `agglobal_company`.`investment_budget`, `agglobal_company`.`company_logo`, `agglobal_company`.`business_plan`, `agglobal_company`.`product_img1`, `agglobal_company`.`product_img2`, `agglobal_company`.`product_img3`, `agglobal_company`.`product_img4`, `agglobal_company`.`company_site`, `agglobal_company`.`introduction`, `agglobal_company`.`userid` FROM `agglobal_company` WHERE `agglobal_company`.`userid` = 45; args=(45,)
[19/Oct/2015 05:08:16] DEBUG [django.db.backends:89] (0.000) SET SQL_AUTO_IS_NULL = 0; args=None
[19/Oct/2015 05:08:16] DEBUG [django.db.backends:89] (0.002) SELECT `agglobal_message`.`id`, `agglobal_message`.`subject`, `agglobal_message`.`body`, `agglobal_message`.`sender`, `agglobal_message`.`receiver`, `agglobal_message`.`read`, `agglobal_message`.`deleted`, `agglobal_message`.`senttime`, `agglobal_message`.`parentid` FROM `agglobal_message` WHERE (`agglobal_message`.`deleted` = 'F' AND `agglobal_message`.`receiver` = 45) ORDER BY `agglobal_message`.`senttime` ASC; args=('F', 45)
[19/Oct/2015 05:08:16] DEBUG [django.db.backends:89] (0.002) SELECT `auth_user`.`id`, `auth_user`.`password`, `auth_user`.`last_login`, `auth_user`.`is_superuser`, `auth_user`.`username`, `auth_user`.`first_name`, `auth_user`.`last_name`, `auth_user`.`email`, `auth_user`.`is_staff`, `auth_user`.`is_active`, `auth_user`.`date_joined` FROM `auth_user` WHERE `auth_user`.`id` = 133; args=(133,)
[19/Oct/2015 05:08:16] DEBUG [django.db.backends:89] (0.001) SELECT (1) AS `a` FROM `agglobal_userprofile` WHERE `agglobal_userprofile`.`userid` = 133 LIMIT 1; args=(133,)
[19/Oct/2015 05:08:16] DEBUG [django.db.backends:89] (0.002) SELECT `agglobal_userprofile`.`user_profile_id`, `agglobal_userprofile`.`first_name`, `agglobal_userprofile`.`last_name`, `agglobal_userprofile`.`email`, `agglobal_userprofile`.`company_name`, `agglobal_userprofile`.`domain`, `agglobal_userprofile`.`introduction`, `agglobal_userprofile`.`job_title`, `agglobal_userprofile`.`personal_profile`, `agglobal_userprofile`.`city`, `agglobal_userprofile`.`country`, `agglobal_userprofile`.`industry`, `agglobal_userprofile`.`industryofconcern`, `agglobal_userprofile`.`profession`, `agglobal_userprofile`.`profile_img`, `agglobal_userprofile`.`activation_key`, `agglobal_userprofile`.`key_expires`, `agglobal_userprofile`.`userid` FROM `agglobal_userprofile` WHERE `agglobal_userprofile`.`userid` = 133 LIMIT 1; args=(133,)
[19/Oct/2015 05:08:16] DEBUG [django.db.backends:89] (0.002) SELECT `agglobal_userprofile`.`user_profile_id`, `agglobal_userprofile`.`first_name`, `agglobal_userprofile`.`last_name`, `agglobal_userprofile`.`email`, `agglobal_userprofile`.`company_name`, `agglobal_userprofile`.`domain`, `agglobal_userprofile`.`introduction`, `agglobal_userprofile`.`job_title`, `agglobal_userprofile`.`personal_profile`, `agglobal_userprofile`.`city`, `agglobal_userprofile`.`country`, `agglobal_userprofile`.`industry`, `agglobal_userprofile`.`industryofconcern`, `agglobal_userprofile`.`profession`, `agglobal_userprofile`.`profile_img`, `agglobal_userprofile`.`activation_key`, `agglobal_userprofile`.`key_expires`, `agglobal_userprofile`.`userid` FROM `agglobal_userprofile` WHERE `agglobal_userprofile`.`userid` = 133; args=(133,)
[19/Oct/2015 05:08:16] DEBUG [django.db.backends:89] (0.001) SELECT `auth_user`.`id`, `auth_user`.`password`, `auth_user`.`last_login`, `auth_user`.`is_superuser`, `auth_user`.`username`, `auth_user`.`first_name`, `auth_user`.`last_name`, `auth_user`.`email`, `auth_user`.`is_staff`, `auth_user`.`is_active`, `auth_user`.`date_joined` FROM `auth_user` WHERE `auth_user`.`id` = 45; args=(45,)
[19/Oct/2015 05:08:16] DEBUG [django.db.backends:89] (0.001) SELECT (1) AS `a` FROM `agglobal_userprofile` WHERE `agglobal_userprofile`.`userid` = 45 LIMIT 1; args=(45,)
[19/Oct/2015 05:08:16] DEBUG [django.db.backends:89] (0.002) SELECT `agglobal_userprofile`.`user_profile_id`, `agglobal_userprofile`.`first_name`, `agglobal_userprofile`.`last_name`, `agglobal_userprofile`.`email`, `agglobal_userprofile`.`company_name`, `agglobal_userprofile`.`domain`, `agglobal_userprofile`.`introduction`, `agglobal_userprofile`.`job_title`, `agglobal_userprofile`.`personal_profile`, `agglobal_userprofile`.`city`, `agglobal_userprofile`.`country`, `agglobal_userprofile`.`industry`, `agglobal_userprofile`.`industryofconcern`, `agglobal_userprofile`.`profession`, `agglobal_userprofile`.`profile_img`, `agglobal_userprofile`.`activation_key`, `agglobal_userprofile`.`key_expires`, `agglobal_userprofile`.`userid` FROM `agglobal_userprofile` WHERE `agglobal_userprofile`.`userid` = 45; args=(45,)
[19/Oct/2015 05:09:57] DEBUG [django.db.backends:89] (0.000) SET SQL_AUTO_IS_NULL = 0; args=None
[19/Oct/2015 05:09:57] DEBUG [django.db.backends:89] (0.001) SELECT (1) AS `a` FROM `agglobal_message` WHERE (`agglobal_message`.`deleted` = 'F' AND `agglobal_message`.`id` IN (6)) LIMIT 1; args=('F', 6)
[19/Oct/2015 05:09:57] DEBUG [django.db.backends:89] (0.002) SELECT `agglobal_message`.`id`, `agglobal_message`.`subject`, `agglobal_message`.`body`, `agglobal_message`.`sender`, `agglobal_message`.`receiver`, `agglobal_message`.`read`, `agglobal_message`.`deleted`, `agglobal_message`.`senttime`, `agglobal_message`.`parentid` FROM `agglobal_message` WHERE (`agglobal_message`.`deleted` = 'F' AND `agglobal_message`.`id` IN (6)) ORDER BY `agglobal_message`.`senttime` ASC; args=('F', 6)
[19/Oct/2015 05:09:57] DEBUG [django.db.backends:89] (0.002) SELECT `auth_user`.`id`, `auth_user`.`password`, `auth_user`.`last_login`, `auth_user`.`is_superuser`, `auth_user`.`username`, `auth_user`.`first_name`, `auth_user`.`last_name`, `auth_user`.`email`, `auth_user`.`is_staff`, `auth_user`.`is_active`, `auth_user`.`date_joined` FROM `auth_user` WHERE `auth_user`.`id` = 45; args=(45,)
[19/Oct/2015 05:09:57] DEBUG [django.db.backends:89] (0.001) SELECT (1) AS `a` FROM `agglobal_userprofile` WHERE `agglobal_userprofile`.`userid` = 45 LIMIT 1; args=(45,)
[19/Oct/2015 05:09:57] DEBUG [django.db.backends:89] (0.002) SELECT `agglobal_userprofile`.`user_profile_id`, `agglobal_userprofile`.`first_name`, `agglobal_userprofile`.`last_name`, `agglobal_userprofile`.`email`, `agglobal_userprofile`.`company_name`, `agglobal_userprofile`.`domain`, `agglobal_userprofile`.`introduction`, `agglobal_userprofile`.`job_title`, `agglobal_userprofile`.`personal_profile`, `agglobal_userprofile`.`city`, `agglobal_userprofile`.`country`, `agglobal_userprofile`.`industry`, `agglobal_userprofile`.`industryofconcern`, `agglobal_userprofile`.`profession`, `agglobal_userprofile`.`profile_img`, `agglobal_userprofile`.`activation_key`, `agglobal_userprofile`.`key_expires`, `agglobal_userprofile`.`userid` FROM `agglobal_userprofile` WHERE `agglobal_userprofile`.`userid` = 45 LIMIT 1; args=(45,)
[19/Oct/2015 05:09:57] DEBUG [django.db.backends:89] (0.002) SELECT `agglobal_userprofile`.`user_profile_id`, `agglobal_userprofile`.`first_name`, `agglobal_userprofile`.`last_name`, `agglobal_userprofile`.`email`, `agglobal_userprofile`.`company_name`, `agglobal_userprofile`.`domain`, `agglobal_userprofile`.`introduction`, `agglobal_userprofile`.`job_title`, `agglobal_userprofile`.`personal_profile`, `agglobal_userprofile`.`city`, `agglobal_userprofile`.`country`, `agglobal_userprofile`.`industry`, `agglobal_userprofile`.`industryofconcern`, `agglobal_userprofile`.`profession`, `agglobal_userprofile`.`profile_img`, `agglobal_userprofile`.`activation_key`, `agglobal_userprofile`.`key_expires`, `agglobal_userprofile`.`userid` FROM `agglobal_userprofile` WHERE `agglobal_userprofile`.`userid` = 45; args=(45,)
[19/Oct/2015 05:09:57] DEBUG [django.db.backends:89] (0.002) SELECT `auth_user`.`id`, `auth_user`.`password`, `auth_user`.`last_login`, `auth_user`.`is_superuser`, `auth_user`.`username`, `auth_user`.`first_name`, `auth_user`.`last_name`, `auth_user`.`email`, `auth_user`.`is_staff`, `auth_user`.`is_active`, `auth_user`.`date_joined` FROM `auth_user` WHERE `auth_user`.`id` = 46; args=(46,)
[19/Oct/2015 05:09:57] DEBUG [django.db.backends:89] (0.001) SELECT (1) AS `a` FROM `agglobal_userprofile` WHERE `agglobal_userprofile`.`userid` = 46 LIMIT 1; args=(46,)
[19/Oct/2015 05:09:57] DEBUG [django.db.backends:89] (0.002) SELECT `agglobal_investorprofile`.`investor_id`, `agglobal_investorprofile`.`first_name`, `agglobal_investorprofile`.`last_name`, `agglobal_investorprofile`.`email`, `agglobal_investorprofile`.`country`, `agglobal_investorprofile`.`city`, `agglobal_investorprofile`.`industryofconcern`, `agglobal_investorprofile`.`company_name`, `agglobal_investorprofile`.`job_title`, `agglobal_investorprofile`.`profession`, `agglobal_investorprofile`.`industry`, `agglobal_investorprofile`.`introduction`, `agglobal_investorprofile`.`personal_profile`, `agglobal_investorprofile`.`profile_img`, `agglobal_investorprofile`.`investment_field`, `agglobal_investorprofile`.`investment_location`, `agglobal_investorprofile`.`investment_budget`, `agglobal_investorprofile`.`investment_angel_status`, `agglobal_investorprofile`.`investment_pre_a_status`, `agglobal_investorprofile`.`investment_a_status`, `agglobal_investorprofile`.`investment_b_status`, `agglobal_investorprofile`.`investment_b_after_status`, `agglobal_investorprofile`.`activation_key`, `agglobal_investorprofile`.`key_expires`, `agglobal_investorprofile`.`userid`, `agglobal_investorprofile`.`certified` FROM `agglobal_investorprofile` WHERE `agglobal_investorprofile`.`userid` = 46; args=(46,)
[19/Oct/2015 05:09:57] DEBUG [django.db.backends:89] (0.001) SELECT (1) AS `a` FROM `agglobal_message` WHERE (`agglobal_message`.`deleted` = 'F' AND `agglobal_message`.`parentid` = 6) LIMIT 1; args=('F', 6)
[19/Oct/2015 05:19:39] DEBUG [django.db.backends:89] (0.000) SET SQL_AUTO_IS_NULL = 0; args=None
[19/Oct/2015 05:19:39] DEBUG [django.db.backends:89] (0.001) SELECT (1) AS `a` FROM `agglobal_investorprofile` WHERE `agglobal_investorprofile`.`userid` = 46 LIMIT 1; args=(46,)
[19/Oct/2015 05:19:39] DEBUG [django.db.backends:89] (0.002) SELECT `agglobal_investorprofile`.`investor_id`, `agglobal_investorprofile`.`first_name`, `agglobal_investorprofile`.`last_name`, `agglobal_investorprofile`.`email`, `agglobal_investorprofile`.`country`, `agglobal_investorprofile`.`city`, `agglobal_investorprofile`.`industryofconcern`, `agglobal_investorprofile`.`company_name`, `agglobal_investorprofile`.`job_title`, `agglobal_investorprofile`.`profession`, `agglobal_investorprofile`.`industry`, `agglobal_investorprofile`.`introduction`, `agglobal_investorprofile`.`personal_profile`, `agglobal_investorprofile`.`profile_img`, `agglobal_investorprofile`.`investment_field`, `agglobal_investorprofile`.`investment_location`, `agglobal_investorprofile`.`investment_budget`, `agglobal_investorprofile`.`investment_angel_status`, `agglobal_investorprofile`.`investment_pre_a_status`, `agglobal_investorprofile`.`investment_a_status`, `agglobal_investorprofile`.`investment_b_status`, `agglobal_investorprofile`.`investment_b_after_status`, `agglobal_investorprofile`.`activation_key`, `agglobal_investorprofile`.`key_expires`, `agglobal_investorprofile`.`userid`, `agglobal_investorprofile`.`certified` FROM `agglobal_investorprofile` WHERE `agglobal_investorprofile`.`userid` = 46; args=(46,)
[19/Oct/2015 05:19:39] DEBUG [django.db.backends:89] (0.002) SELECT `agglobal_investment_experiences`.`id`, `agglobal_investment_experiences`.`project_name`, `agglobal_investment_experiences`.`invest_year`, `agglobal_investment_experiences`.`invest_month`, `agglobal_investment_experiences`.`invested_status`, `agglobal_investment_experiences`.`project_detail`, `agglobal_investment_experiences`.`attached_project_file`, `agglobal_investment_experiences`.`investor_id` FROM `agglobal_investment_experiences` WHERE `agglobal_investment_experiences`.`investor_id` = 14; args=(14,)
[19/Oct/2015 05:19:39] DEBUG [django.db.backends:89] (0.002) SELECT `auth_user`.`id`, `auth_user`.`password`, `auth_user`.`last_login`, `auth_user`.`is_superuser`, `auth_user`.`username`, `auth_user`.`first_name`, `auth_user`.`last_name`, `auth_user`.`email`, `auth_user`.`is_staff`, `auth_user`.`is_active`, `auth_user`.`date_joined` FROM `auth_user` WHERE `auth_user`.`id` = 133; args=(133,)
[19/Oct/2015 05:19:39] DEBUG [django.db.backends:89] (0.002) SELECT `agglobal_userprofile`.`user_profile_id`, `agglobal_userprofile`.`first_name`, `agglobal_userprofile`.`last_name`, `agglobal_userprofile`.`email`, `agglobal_userprofile`.`company_name`, `agglobal_userprofile`.`domain`, `agglobal_userprofile`.`introduction`, `agglobal_userprofile`.`job_title`, `agglobal_userprofile`.`personal_profile`, `agglobal_userprofile`.`city`, `agglobal_userprofile`.`country`, `agglobal_userprofile`.`industry`, `agglobal_userprofile`.`industryofconcern`, `agglobal_userprofile`.`profession`, `agglobal_userprofile`.`profile_img`, `agglobal_userprofile`.`activation_key`, `agglobal_userprofile`.`key_expires`, `agglobal_userprofile`.`userid` FROM `agglobal_userprofile` WHERE `agglobal_userprofile`.`userid` = 133; args=(133,)
[19/Oct/2015 05:19:39] DEBUG [django.db.backends:89] (0.001) SELECT COUNT('*') AS `__count` FROM `agglobal_message` WHERE (`agglobal_message`.`read` = 'F' AND `agglobal_message`.`receiver` = 133); args=('*', 'F', 133)
[19/Oct/2015 05:19:39] DEBUG [django.db.backends:89] (0.002) SELECT `agglobal_investorprofile`.`investor_id`, `agglobal_investorprofile`.`first_name`, `agglobal_investorprofile`.`last_name`, `agglobal_investorprofile`.`email`, `agglobal_investorprofile`.`country`, `agglobal_investorprofile`.`city`, `agglobal_investorprofile`.`industryofconcern`, `agglobal_investorprofile`.`company_name`, `agglobal_investorprofile`.`job_title`, `agglobal_investorprofile`.`profession`, `agglobal_investorprofile`.`industry`, `agglobal_investorprofile`.`introduction`, `agglobal_investorprofile`.`personal_profile`, `agglobal_investorprofile`.`profile_img`, `agglobal_investorprofile`.`investment_field`, `agglobal_investorprofile`.`investment_location`, `agglobal_investorprofile`.`investment_budget`, `agglobal_investorprofile`.`investment_angel_status`, `agglobal_investorprofile`.`investment_pre_a_status`, `agglobal_investorprofile`.`investment_a_status`, `agglobal_investorprofile`.`investment_b_status`, `agglobal_investorprofile`.`investment_b_after_status`, `agglobal_investorprofile`.`activation_key`, `agglobal_investorprofile`.`key_expires`, `agglobal_investorprofile`.`userid`, `agglobal_investorprofile`.`certified` FROM `agglobal_investorprofile` WHERE `agglobal_investorprofile`.`userid` = 133; args=(133,)
[19/Oct/2015 05:19:39] DEBUG [django.db.backends:89] (0.001) SELECT `agglobal_company`.`company_id`, `agglobal_company`.`project_name`, `agglobal_company`.`description`, `agglobal_company`.`location`, `agglobal_company`.`industry`, `agglobal_company`.`invested_status`, `agglobal_company`.`investment_budget`, `agglobal_company`.`company_logo`, `agglobal_company`.`business_plan`, `agglobal_company`.`product_img1`, `agglobal_company`.`product_img2`, `agglobal_company`.`product_img3`, `agglobal_company`.`product_img4`, `agglobal_company`.`company_site`, `agglobal_company`.`introduction`, `agglobal_company`.`userid` FROM `agglobal_company` WHERE `agglobal_company`.`userid` = 133; args=(133,)
[19/Oct/2015 05:19:39] ERROR [django.request:256] Internal Server Error: /agglobal/viewInvProfile/46
Traceback (most recent call last):
  File "/usr/local/lib/python2.7/site-packages/django/core/handlers/base.py", line 132, in get_response
    response = wrapped_callback(request, *callback_args, **callback_kwargs)
  File "/usr/local/lib/python2.7/site-packages/django/views/decorators/csrf.py", line 58, in wrapped_view
    return view_func(*args, **kwargs)
  File "/aggdemo/agglobal/views.py", line 2960, in view_investor_profile
    return_json = dict(return_json.items() + return_json2.items())
TypeError: unsupported operand type(s) for +: 'builtin_function_or_method' and 'list'
