[19/Oct/2015 05:03:32] DEBUG [django.db.backends:89] (0.000) SET SQL_AUTO_IS_NULL = 0; args=None
[19/Oct/2015 05:03:32] DEBUG [django.db.backends:89] (0.002) SELECT `agglobal_message`.`id`, `agglobal_message`.`subject`, `agglobal_message`.`body`, `agglobal_message`.`sender`, `agglobal_message`.`receiver`, `agglobal_message`.`read`, `agglobal_message`.`deleted`, `agglobal_message`.`senttime`, `agglobal_message`.`parentid` FROM `agglobal_message` WHERE (`agglobal_message`.`deleted` = 'F' AND `agglobal_message`.`sender` = 45 AND `agglobal_message`.`parentid` IS NULL) ORDER BY `agglobal_message`.`senttime` ASC; args=('F', 45)
[19/Oct/2015 05:03:32] DEBUG [django.db.backends:89] (0.002) SELECT `auth_user`.`id`, `auth_user`.`password`, `auth_user`.`last_login`, `auth_user`.`is_superuser`, `auth_user`.`username`, `auth_user`.`first_name`, `auth_user`.`last_name`, `auth_user`.`email`, `auth_user`.`is_staff`, `auth_user`.`is_active`, `auth_user`.`date_joined` FROM `auth_user` WHERE `auth_user`.`id` = 45; args=(45,)
[19/Oct/2015 05:03:32] DEBUG [django.db.backends:89] (0.001) SELECT (1) AS `a` FROM `agglobal_userprofile` WHERE `agglobal_userprofile`.`userid` = 45 LIMIT 1; args=(45,)
[19/Oct/2015 05:03:32] DEBUG [django.db.backends:89] (0.002) SELECT `agglobal_userprofile`.`user_profile_id`, `agglobal_userprofile`.`first_name`, `agglobal_userprofile`.`last_name`, `agglobal_userprofile`.`email`, `agglobal_userprofile`.`company_name`, `agglobal_userprofile`.`domain`, `agglobal_userprofile`.`introduction`, `agglobal_userprofile`.`job_title`, `agglobal_userprofile`.`personal_profile`, `agglobal_userprofile`.`city`, `agglobal_userprofile`.`country`, `agglobal_userprofile`.`industry`, `agglobal_userprofile`.`industryofconcern`, `agglobal_userprofile`.`profession`, `agglobal_userprofile`.`profile_img`, `agglobal_userprofile`.`activation_key`, `agglobal_userprofile`.`key_expires`, `agglobal_userprofile`.`userid` FROM `agglobal_userprofile` WHERE `agglobal_userprofile`.`userid` = 45 LIMIT 1; args=(45,)
[19/Oct/2015 05:03:32] DEBUG [django.db.backends:89] (0.002) SELECT `agglobal_userprofile`.`user_profile_id`, `agglobal_userprofile`.`first_name`, `agglobal_userprofile`.`last_name`, `agglobal_userprofile`.`email`, `agglobal_userprofile`.`company_name`, `agglobal_userprofile`.`domain`, `agglobal_userprofile`.`introduction`, `agglobal_userprofile`.`job_title`, `agglobal_userprofile`.`personal_profile`, `agglobal_userprofile`.`city`, `agglobal_userprofile`.`country`, `agglobal_userprofile`.`industry`, `agglobal_userprofile`.`industryofconcern`, `agglobal_userprofile`.`profession`, `agglobal_userprofile`.`profile_img`, `agglobal_userprofile`.`activation_key`, `agglobal_userprofile`.`key_expires`, `agglobal_userprofile`.`userid` FROM `agglobal_userprofile` WHERE `agglobal_userprofile`.`userid` = 45; args=(45,)
[19/Oct/2015 05:03:32] DEBUG [django.db.backends:89] (0.002) SELECT `auth_user`.`id`, `auth_user`.`password`, `auth_user`.`last_login`, `auth_user`.`is_superuser`, `auth_user`.`username`, `auth_user`.`first_name`, `auth_user`.`last_name`, `auth_user`.`email`, `auth_user`.`is_staff`, `auth_user`.`is_active`, `auth_user`.`date_joined` FROM `auth_user` WHERE `auth_user`.`id` = 46; args=(46,)
[19/Oct/2015 05:03:32] DEBUG [django.db.backends:89] (0.001) SELECT (1) AS `a` FROM `agglobal_userprofile` WHERE `agglobal_userprofile`.`userid` = 46 LIMIT 1; args=(46,)
[19/Oct/2015 05:03:32] DEBUG [django.db.backends:89] (0.002) SELECT `agglobal_investorprofile`.`investor_id`, `agglobal_investorprofile`.`first_name`, `agglobal_investorprofile`.`last_name`, `agglobal_investorprofile`.`email`, `agglobal_investorprofile`.`country`, `agglobal_investorprofile`.`city`, `agglobal_investorprofile`.`industryofconcern`, `agglobal_investorprofile`.`company_name`, `agglobal_investorprofile`.`job_title`, `agglobal_investorprofile`.`profession`, `agglobal_investorprofile`.`industry`, `agglobal_investorprofile`.`introduction`, `agglobal_investorprofile`.`personal_profile`, `agglobal_investorprofile`.`profile_img`, `agglobal_investorprofile`.`investment_field`, `agglobal_investorprofile`.`investment_location`, `agglobal_investorprofile`.`investment_budget`, `agglobal_investorprofile`.`investment_angel_status`, `agglobal_investorprofile`.`investment_pre_a_status`, `agglobal_investorprofile`.`investment_a_status`, `agglobal_investorprofile`.`investment_b_status`, `agglobal_investorprofile`.`investment_b_after_status`, `agglobal_investorprofile`.`activation_key`, `agglobal_investorprofile`.`key_expires`, `agglobal_investorprofile`.`userid`, `agglobal_investorprofile`.`certified` FROM `agglobal_investorprofile` WHERE `agglobal_investorprofile`.`userid` = 46; args=(46,)
[19/Oct/2015 05:03:32] DEBUG [django.db.backends:89] (0.002) SELECT `auth_user`.`id`, `auth_user`.`password`, `auth_user`.`last_login`, `auth_user`.`is_superuser`, `auth_user`.`username`, `auth_user`.`first_name`, `auth_user`.`last_name`, `auth_user`.`email`, `auth_user`.`is_staff`, `auth_user`.`is_active`, `auth_user`.`date_joined` FROM `auth_user` WHERE `auth_user`.`id` = 45; args=(45,)
[19/Oct/2015 05:03:32] DEBUG [django.db.backends:89] (0.001) SELECT (1) AS `a` FROM `agglobal_userprofile` WHERE `agglobal_userprofile`.`userid` = 45 LIMIT 1; args=(45,)
[19/Oct/2015 05:03:32] DEBUG [django.db.backends:89] (0.002) SELECT `agglobal_userprofile`.`user_profile_id`, `agglobal_userprofile`.`first_name`, `agglobal_userprofile`.`last_name`, `agglobal_userprofile`.`email`, `agglobal_userprofile`.`company_name`, `agglobal_userprofile`.`domain`, `agglobal_userprofile`.`introduction`, `agglobal_userprofile`.`job_title`, `agglobal_userprofile`.`personal_profile`, `agglobal_userprofile`.`city`, `agglobal_userprofile`.`country`, `agglobal_userprofile`.`industry`, `agglobal_userprofile`.`industryofconcern`, `agglobal_userprofile`.`profession`, `agglobal_userprofile`.`profile_img`, `agglobal_userprofile`.`activation_key`, `agglobal_userprofile`.`key_expires`, `agglobal_userprofile`.`userid` FROM `agglobal_userprofile` WHERE `agglobal_userprofile`.`userid` = 45 LIMIT 1; args=(45,)
[19/Oct/2015 05:03:32] DEBUG [django.db.backends:89] (0.002) SELECT `agglobal_userprofile`.`user_profile_id`, `agglobal_userprofile`.`first_name`, `agglobal_userprofile`.`last_name`, `agglobal_userprofile`.`email`, `agglobal_userprofile`.`company_name`, `agglobal_userprofile`.`domain`, `agglobal_userprofile`.`introduction`, `agglobal_userprofile`.`job_title`, `agglobal_userprofile`.`personal_profile`, `agglobal_userprofile`.`city`, `agglobal_userprofile`.`country`, `agglobal_userprofile`.`industry`, `agglobal_userprofile`.`industryofconcern`, `agglobal_userprofile`.`profession`, `agglobal_userprofile`.`profile_img`, `agglobal_userprofile`.`activation_key`, `agglobal_userprofile`.`key_expires`, `agglobal_userprofile`.`userid` FROM `agglobal_userprofile` WHERE `agglobal_userprofile`.`userid` = 45; args=(45,)
[19/Oct/2015 05:03:32] DEBUG [django.db.backends:89] (0.008) SELECT `auth_user`.`id`, `auth_user`.`password`, `auth_user`.`last_login`, `auth_user`.`is_superuser`, `auth_user`.`username`, `auth_user`.`first_name`, `auth_user`.`last_name`, `auth_user`.`email`, `auth_user`.`is_staff`, `auth_user`.`is_active`, `auth_user`.`date_joined` FROM `auth_user` WHERE `auth_user`.`id` = 151; args=(151,)
[19/Oct/2015 05:03:32] DEBUG [django.db.backends:89] (0.001) SELECT (1) AS `a` FROM `agglobal_userprofile` WHERE `agglobal_userprofile`.`userid` = 151 LIMIT 1; args=(151,)
[19/Oct/2015 05:03:32] DEBUG [django.db.backends:89] (0.002) SELECT `agglobal_userprofile`.`user_profile_id`, `agglobal_userprofile`.`first_name`, `agglobal_userprofile`.`last_name`, `agglobal_userprofile`.`email`, `agglobal_userprofile`.`company_name`, `agglobal_userprofile`.`domain`, `agglobal_userprofile`.`introduction`, `agglobal_userprofile`.`job_title`, `agglobal_userprofile`.`personal_profile`, `agglobal_userprofile`.`city`, `agglobal_userprofile`.`country`, `agglobal_userprofile`.`industry`, `agglobal_userprofile`.`industryofconcern`, `agglobal_userprofile`.`profession`, `agglobal_userprofile`.`profile_img`, `agglobal_userprofile`.`activation_key`, `agglobal_userprofile`.`key_expires`, `agglobal_userprofile`.`userid` FROM `agglobal_userprofile` WHERE `agglobal_userprofile`.`userid` = 151; args=(151,)
[19/Oct/2015 05:03:32] DEBUG [django.db.backends:89] (0.002) SELECT `auth_user`.`id`, `auth_user`.`password`, `auth_user`.`last_login`, `auth_user`.`is_superuser`, `auth_user`.`username`, `auth_user`.`first_name`, `auth_user`.`last_name`, `auth_user`.`email`, `auth_user`.`is_staff`, `auth_user`.`is_active`, `auth_user`.`date_joined` FROM `auth_user` WHERE `auth_user`.`id` = 45; args=(45,)
[19/Oct/2015 05:03:32] DEBUG [django.db.backends:89] (0.001) SELECT (1) AS `a` FROM `agglobal_userprofile` WHERE `agglobal_userprofile`.`userid` = 45 LIMIT 1; args=(45,)
[19/Oct/2015 05:03:32] DEBUG [django.db.backends:89] (0.002) SELECT `agglobal_userprofile`.`user_profile_id`, `agglobal_userprofile`.`first_name`, `agglobal_userprofile`.`last_name`, `agglobal_userprofile`.`email`, `agglobal_userprofile`.`company_name`, `agglobal_userprofile`.`domain`, `agglobal_userprofile`.`introduction`, `agglobal_userprofile`.`job_title`, `agglobal_userprofile`.`personal_profile`, `agglobal_userprofile`.`city`, `agglobal_userprofile`.`country`, `agglobal_userprofile`.`industry`, `agglobal_userprofile`.`industryofconcern`, `agglobal_userprofile`.`profession`, `agglobal_userprofile`.`profile_img`, `agglobal_userprofile`.`activation_key`, `agglobal_userprofile`.`key_expires`, `agglobal_userprofile`.`userid` FROM `agglobal_userprofile` WHERE `agglobal_userprofile`.`userid` = 45 LIMIT 1; args=(45,)
[19/Oct/2015 05:03:32] DEBUG [django.db.backends:89] (0.002) SELECT `agglobal_userprofile`.`user_profile_id`, `agglobal_userprofile`.`first_name`, `agglobal_userprofile`.`last_name`, `agglobal_userprofile`.`email`, `agglobal_userprofile`.`company_name`, `agglobal_userprofile`.`domain`, `agglobal_userprofile`.`introduction`, `agglobal_userprofile`.`job_title`, `agglobal_userprofile`.`personal_profile`, `agglobal_userprofile`.`city`, `agglobal_userprofile`.`country`, `agglobal_userprofile`.`industry`, `agglobal_userprofile`.`industryofconcern`, `agglobal_userprofile`.`profession`, `agglobal_userprofile`.`profile_img`, `agglobal_userprofile`.`activation_key`, `agglobal_userprofile`.`key_expires`, `agglobal_userprofile`.`userid` FROM `agglobal_userprofile` WHERE `agglobal_userprofile`.`userid` = 45; args=(45,)
[19/Oct/2015 05:03:33] DEBUG [django.db.backends:89] (0.001) SELECT `auth_user`.`id`, `auth_user`.`password`, `auth_user`.`last_login`, `auth_user`.`is_superuser`, `auth_user`.`username`, `auth_user`.`first_name`, `auth_user`.`last_name`, `auth_user`.`email`, `auth_user`.`is_staff`, `auth_user`.`is_active`, `auth_user`.`date_joined` FROM `auth_user` WHERE `auth_user`.`id` = 151; args=(151,)
[19/Oct/2015 05:03:33] DEBUG [django.db.backends:89] (0.001) SELECT (1) AS `a` FROM `agglobal_userprofile` WHERE `agglobal_userprofile`.`userid` = 151 LIMIT 1; args=(151,)
[19/Oct/2015 05:03:33] DEBUG [django.db.backends:89] (0.002) SELECT `agglobal_userprofile`.`user_profile_id`, `agglobal_userprofile`.`first_name`, `agglobal_userprofile`.`last_name`, `agglobal_userprofile`.`email`, `agglobal_userprofile`.`company_name`, `agglobal_userprofile`.`domain`, `agglobal_userprofile`.`introduction`, `agglobal_userprofile`.`job_title`, `agglobal_userprofile`.`personal_profile`, `agglobal_userprofile`.`city`, `agglobal_userprofile`.`country`, `agglobal_userprofile`.`industry`, `agglobal_userprofile`.`industryofconcern`, `agglobal_userprofile`.`profession`, `agglobal_userprofile`.`profile_img`, `agglobal_userprofile`.`activation_key`, `agglobal_userprofile`.`key_expires`, `agglobal_userprofile`.`userid` FROM `agglobal_userprofile` WHERE `agglobal_userprofile`.`userid` = 151; args=(151,)
[19/Oct/2015 05:06:28] DEBUG [django.db.backends:89] (0.000) SET SQL_AUTO_IS_NULL = 0; args=None
[19/Oct/2015 05:06:28] DEBUG [django.db.backends:89] (0.001) SELECT (1) AS `a` FROM `agglobal_message` WHERE (`agglobal_message`.`deleted` = 'F' AND `agglobal_message`.`id` IN (3)) LIMIT 1; args=('F', 3)
[19/Oct/2015 05:06:28] DEBUG [django.db.backends:89] (0.002) SELECT `agglobal_message`.`id`, `agglobal_message`.`subject`, `agglobal_message`.`body`, `agglobal_message`.`sender`, `agglobal_message`.`receiver`, `agglobal_message`.`read`, `agglobal_message`.`deleted`, `agglobal_message`.`senttime`, `agglobal_message`.`parentid` FROM `agglobal_message` WHERE (`agglobal_message`.`deleted` = 'F' AND `agglobal_message`.`id` IN (3)) ORDER BY `agglobal_message`.`senttime` ASC; args=('F', 3)
[19/Oct/2015 05:06:28] DEBUG [django.db.backends:89] (0.001) SELECT `auth_user`.`id`, `auth_user`.`password`, `auth_user`.`last_login`, `auth_user`.`is_superuser`, `auth_user`.`username`, `auth_user`.`first_name`, `auth_user`.`last_name`, `auth_user`.`email`, `auth_user`.`is_staff`, `auth_user`.`is_active`, `auth_user`.`date_joined` FROM `auth_user` WHERE `auth_user`.`id` = 133; args=(133,)
[19/Oct/2015 05:06:28] DEBUG [django.db.backends:89] (0.001) SELECT (1) AS `a` FROM `agglobal_userprofile` WHERE `agglobal_userprofile`.`userid` = 133 LIMIT 1; args=(133,)
[19/Oct/2015 05:06:28] DEBUG [django.db.backends:89] (0.002) SELECT `agglobal_userprofile`.`user_profile_id`, `agglobal_userprofile`.`first_name`, `agglobal_userprofile`.`last_name`, `agglobal_userprofile`.`email`, `agglobal_userprofile`.`company_name`, `agglobal_userprofile`.`domain`, `agglobal_userprofile`.`introduction`, `agglobal_userprofile`.`job_title`, `agglobal_userprofile`.`personal_profile`, `agglobal_userprofile`.`city`, `agglobal_userprofile`.`country`, `agglobal_userprofile`.`industry`, `agglobal_userprofile`.`industryofconcern`, `agglobal_userprofile`.`profession`, `agglobal_userprofile`.`profile_img`, `agglobal_userprofile`.`activation_key`, `agglobal_userprofile`.`key_expires`, `agglobal_userprofile`.`userid` FROM `agglobal_userprofile` WHERE `agglobal_userprofile`.`userid` = 133 LIMIT 1; args=(133,)
[19/Oct/2015 05:06:28] DEBUG [django.db.backends:89] (0.002) SELECT `agglobal_userprofile`.`user_profile_id`, `agglobal_userprofile`.`first_name`, `agglobal_userprofile`.`last_name`, `agglobal_userprofile`.`email`, `agglobal_userprofile`.`company_name`, `agglobal_userprofile`.`domain`, `agglobal_userprofile`.`introduction`, `agglobal_userprofile`.`job_title`, `agglobal_userprofile`.`personal_profile`, `agglobal_userprofile`.`city`, `agglobal_userprofile`.`country`, `agglobal_userprofile`.`industry`, `agglobal_userprofile`.`industryofconcern`, `agglobal_userprofile`.`profession`, `agglobal_userprofile`.`profile_img`, `agglobal_userprofile`.`activation_key`, `agglobal_userprofile`.`key_expires`, `agglobal_userprofile`.`userid` FROM `agglobal_userprofile` WHERE `agglobal_userprofile`.`userid` = 133; args=(133,)
[19/Oct/2015 05:06:28] DEBUG [django.db.backends:89] (0.002) SELECT `auth_user`.`id`, `auth_user`.`password`, `auth_user`.`last_login`, `auth_user`.`is_superuser`, `auth_user`.`username`, `auth_user`.`first_name`, `auth_user`.`last_name`, `auth_user`.`email`, `auth_user`.`is_staff`, `auth_user`.`is_active`, `auth_user`.`date_joined` FROM `auth_user` WHERE `auth_user`.`id` = 45; args=(45,)
[19/Oct/2015 05:06:28] DEBUG [django.db.backends:89] (0.001) SELECT (1) AS `a` FROM `agglobal_userprofile` WHERE `agglobal_userprofile`.`userid` = 45 LIMIT 1; args=(45,)
[19/Oct/2015 05:06:28] DEBUG [django.db.backends:89] (0.002) SELECT `agglobal_userprofile`.`user_profile_id`, `agglobal_userprofile`.`first_name`, `agglobal_userprofile`.`last_name`, `agglobal_userprofile`.`email`, `agglobal_userprofile`.`company_name`, `agglobal_userprofile`.`domain`, `agglobal_userprofile`.`introduction`, `agglobal_userprofile`.`job_title`, `agglobal_userprofile`.`personal_profile`, `agglobal_userprofile`.`city`, `agglobal_userprofile`.`country`, `agglobal_userprofile`.`industry`, `agglobal_userprofile`.`industryofconcern`, `agglobal_userprofile`.`profession`, `agglobal_userprofile`.`profile_img`, `agglobal_userprofile`.`activation_key`, `agglobal_userprofile`.`key_expires`, `agglobal_userprofile`.`userid` FROM `agglobal_userprofile` WHERE `agglobal_userprofile`.`userid` = 45; args=(45,)
[19/Oct/2015 05:06:28] DEBUG [django.db.backends:89] (0.001) SELECT (1) AS `a` FROM `agglobal_message` WHERE (`agglobal_message`.`deleted` = 'F' AND `agglobal_message`.`parentid` = 3) LIMIT 1; args=('F', 3)
[19/Oct/2015 05:06:28] DEBUG [django.db.backends:89] (0.002) SELECT `agglobal_message`.`id`, `agglobal_message`.`subject`, `agglobal_message`.`body`, `agglobal_message`.`sender`, `agglobal_message`.`receiver`, `agglobal_message`.`read`, `agglobal_message`.`deleted`, `agglobal_message`.`senttime`, `agglobal_message`.`parentid` FROM `agglobal_message` WHERE (`agglobal_message`.`deleted` = 'F' AND `agglobal_message`.`parentid` = 3) ORDER BY `agglobal_message`.`senttime` ASC; args=('F', 3)
[19/Oct/2015 05:06:28] DEBUG [django.db.backends:89] (0.001) SELECT (1) AS `a` FROM `agglobal_message` WHERE (`agglobal_message`.`deleted` = 'F' AND `agglobal_message`.`id` IN (4)) LIMIT 1; args=('F', 4)
[19/Oct/2015 05:06:28] DEBUG [django.db.backends:89] (0.002) SELECT `agglobal_message`.`id`, `agglobal_message`.`subject`, `agglobal_message`.`body`, `agglobal_message`.`sender`, `agglobal_message`.`receiver`, `agglobal_message`.`read`, `agglobal_message`.`deleted`, `agglobal_message`.`senttime`, `agglobal_message`.`parentid` FROM `agglobal_message` WHERE (`agglobal_message`.`deleted` = 'F' AND `agglobal_message`.`id` IN (4)) ORDER BY `agglobal_message`.`senttime` ASC; args=('F', 4)
[19/Oct/2015 05:06:28] DEBUG [django.db.backends:89] (0.002) SELECT `auth_user`.`id`, `auth_user`.`password`, `auth_user`.`last_login`, `auth_user`.`is_superuser`, `auth_user`.`username`, `auth_user`.`first_name`, `auth_user`.`last_name`, `auth_user`.`email`, `auth_user`.`is_staff`, `auth_user`.`is_active`, `auth_user`.`date_joined` FROM `auth_user` WHERE `auth_user`.`id` = 45; args=(45,)
[19/Oct/2015 05:06:28] DEBUG [django.db.backends:89] (0.001) SELECT (1) AS `a` FROM `agglobal_userprofile` WHERE `agglobal_userprofile`.`userid` = 45 LIMIT 1; args=(45,)
[19/Oct/2015 05:06:28] DEBUG [django.db.backends:89] (0.002) SELECT `agglobal_userprofile`.`user_profile_id`, `agglobal_userprofile`.`first_name`, `agglobal_userprofile`.`last_name`, `agglobal_userprofile`.`email`, `agglobal_userprofile`.`company_name`, `agglobal_userprofile`.`domain`, `agglobal_userprofile`.`introduction`, `agglobal_userprofile`.`job_title`, `agglobal_userprofile`.`personal_profile`, `agglobal_userprofile`.`city`, `agglobal_userprofile`.`country`, `agglobal_userprofile`.`industry`, `agglobal_userprofile`.`industryofconcern`, `agglobal_userprofile`.`profession`, `agglobal_userprofile`.`profile_img`, `agglobal_userprofile`.`activation_key`, `agglobal_userprofile`.`key_expires`, `agglobal_userprofile`.`userid` FROM `agglobal_userprofile` WHERE `agglobal_userprofile`.`userid` = 45 LIMIT 1; args=(45,)
[19/Oct/2015 05:06:28] DEBUG [django.db.backends:89] (0.002) SELECT `agglobal_userprofile`.`user_profile_id`, `agglobal_userprofile`.`first_name`, `agglobal_userprofile`.`last_name`, `agglobal_userprofile`.`email`, `agglobal_userprofile`.`company_name`, `agglobal_userprofile`.`domain`, `agglobal_userprofile`.`introduction`, `agglobal_userprofile`.`job_title`, `agglobal_userprofile`.`personal_profile`, `agglobal_userprofile`.`city`, `agglobal_userprofile`.`country`, `agglobal_userprofile`.`industry`, `agglobal_userprofile`.`industryofconcern`, `agglobal_userprofile`.`profession`, `agglobal_userprofile`.`profile_img`, `agglobal_userprofile`.`activation_key`, `agglobal_userprofile`.`key_expires`, `agglobal_userprofile`.`userid` FROM `agglobal_userprofile` WHERE `agglobal_userprofile`.`userid` = 45; args=(45,)
[19/Oct/2015 05:06:28] DEBUG [django.db.backends:89] (0.002) SELECT `auth_user`.`id`, `auth_user`.`password`, `auth_user`.`last_login`, `auth_user`.`is_superuser`, `auth_user`.`username`, `auth_user`.`first_name`, `auth_user`.`last_name`, `auth_user`.`email`, `auth_user`.`is_staff`, `auth_user`.`is_active`, `auth_user`.`date_joined` FROM `auth_user` WHERE `auth_user`.`id` = 133; args=(133,)
[19/Oct/2015 05:06:28] DEBUG [django.db.backends:89] (0.001) SELECT (1) AS `a` FROM `agglobal_userprofile` WHERE `agglobal_userprofile`.`userid` = 133 LIMIT 1; args=(133,)
[19/Oct/2015 05:06:28] DEBUG [django.db.backends:89] (0.002) SELECT `agglobal_userprofile`.`user_profile_id`, `agglobal_userprofile`.`first_name`, `agglobal_userprofile`.`last_name`, `agglobal_userprofile`.`email`, `agglobal_userprofile`.`company_name`, `agglobal_userprofile`.`domain`, `agglobal_userprofile`.`introduction`, `agglobal_userprofile`.`job_title`, `agglobal_userprofile`.`personal_profile`, `agglobal_userprofile`.`city`, `agglobal_userprofile`.`country`, `agglobal_userprofile`.`industry`, `agglobal_userprofile`.`industryofconcern`, `agglobal_userprofile`.`profession`, `agglobal_userprofile`.`profile_img`, `agglobal_userprofile`.`activation_key`, `agglobal_userprofile`.`key_expires`, `agglobal_userprofile`.`userid` FROM `agglobal_userprofile` WHERE `agglobal_userprofile`.`userid` = 133; args=(133,)
[19/Oct/2015 05:06:28] DEBUG [django.db.backends:89] (0.001) SELECT (1) AS `a` FROM `agglobal_message` WHERE (`agglobal_message`.`deleted` = 'F' AND `agglobal_message`.`parentid` = 4) LIMIT 1; args=('F', 4)
[19/Oct/2015 05:06:28] DEBUG [django.db.backends:89] (0.002) SELECT `agglobal_message`.`id`, `agglobal_message`.`subject`, `agglobal_message`.`body`, `agglobal_message`.`sender`, `agglobal_message`.`receiver`, `agglobal_message`.`read`, `agglobal_message`.`deleted`, `agglobal_message`.`senttime`, `agglobal_message`.`parentid` FROM `agglobal_message` WHERE (`agglobal_message`.`deleted` = 'F' AND `agglobal_message`.`parentid` = 4) ORDER BY `agglobal_message`.`senttime` ASC; args=('F', 4)
[19/Oct/2015 05:06:28] DEBUG [django.db.backends:89] (0.001) SELECT (1) AS `a` FROM `agglobal_message` WHERE (`agglobal_message`.`deleted` = 'F' AND `agglobal_message`.`id` IN (13)) LIMIT 1; args=('F', 13)
[19/Oct/2015 05:06:28] DEBUG [django.db.backends:89] (0.002) SELECT `agglobal_message`.`id`, `agglobal_message`.`subject`, `agglobal_message`.`body`, `agglobal_message`.`sender`, `agglobal_message`.`receiver`, `agglobal_message`.`read`, `agglobal_message`.`deleted`, `agglobal_message`.`senttime`, `agglobal_message`.`parentid` FROM `agglobal_message` WHERE (`agglobal_message`.`deleted` = 'F' AND `agglobal_message`.`id` IN (13)) ORDER BY `agglobal_message`.`senttime` ASC; args=('F', 13)
[19/Oct/2015 05:06:28] DEBUG [django.db.backends:89] (0.002) SELECT `auth_user`.`id`, `auth_user`.`password`, `auth_user`.`last_login`, `auth_user`.`is_superuser`, `auth_user`.`username`, `auth_user`.`first_name`, `auth_user`.`last_name`, `auth_user`.`email`, `auth_user`.`is_staff`, `auth_user`.`is_active`, `auth_user`.`date_joined` FROM `auth_user` WHERE `auth_user`.`id` = 45; args=(45,)
[19/Oct/2015 05:06:28] DEBUG [django.db.backends:89] (0.001) SELECT (1) AS `a` FROM `agglobal_userprofile` WHERE `agglobal_userprofile`.`userid` = 45 LIMIT 1; args=(45,)
[19/Oct/2015 05:06:28] DEBUG [django.db.backends:89] (0.002) SELECT `agglobal_userprofile`.`user_profile_id`, `agglobal_userprofile`.`first_name`, `agglobal_userprofile`.`last_name`, `agglobal_userprofile`.`email`, `agglobal_userprofile`.`company_name`, `agglobal_userprofile`.`domain`, `agglobal_userprofile`.`introduction`, `agglobal_userprofile`.`job_title`, `agglobal_userprofile`.`personal_profile`, `agglobal_userprofile`.`city`, `agglobal_userprofile`.`country`, `agglobal_userprofile`.`industry`, `agglobal_userprofile`.`industryofconcern`, `agglobal_userprofile`.`profession`, `agglobal_userprofile`.`profile_img`, `agglobal_userprofile`.`activation_key`, `agglobal_userprofile`.`key_expires`, `agglobal_userprofile`.`userid` FROM `agglobal_userprofile` WHERE `agglobal_userprofile`.`userid` = 45 LIMIT 1; args=(45,)
[19/Oct/2015 05:06:29] DEBUG [django.db.backends:89] (0.002) SELECT `agglobal_userprofile`.`user_profile_id`, `agglobal_userprofile`.`first_name`, `agglobal_userprofile`.`last_name`, `agglobal_userprofile`.`email`, `agglobal_userprofile`.`company_name`, `agglobal_userprofile`.`domain`, `agglobal_userprofile`.`introduction`, `agglobal_userprofile`.`job_title`, `agglobal_userprofile`.`personal_profile`, `agglobal_userprofile`.`city`, `agglobal_userprofile`.`country`, `agglobal_userprofile`.`industry`, `agglobal_userprofile`.`industryofconcern`, `agglobal_userprofile`.`profession`, `agglobal_userprofile`.`profile_img`, `agglobal_userprofile`.`activation_key`, `agglobal_userprofile`.`key_expires`, `agglobal_userprofile`.`userid` FROM `agglobal_userprofile` WHERE `agglobal_userprofile`.`userid` = 45; args=(45,)
[19/Oct/2015 05:06:29] DEBUG [django.db.backends:89] (0.002) SELECT `auth_user`.`id`, `auth_user`.`password`, `auth_user`.`last_login`, `auth_user`.`is_superuser`, `auth_user`.`username`, `auth_user`.`first_name`, `auth_user`.`last_name`, `auth_user`.`email`, `auth_user`.`is_staff`, `auth_user`.`is_active`, `auth_user`.`date_joined` FROM `auth_user` WHERE `auth_user`.`id` = 133; args=(133,)
[19/Oct/2015 05:06:29] DEBUG [django.db.backends:89] (0.001) SELECT (1) AS `a` FROM `agglobal_userprofile` WHERE `agglobal_userprofile`.`userid` = 133 LIMIT 1; args=(133,)
[19/Oct/2015 05:06:29] DEBUG [django.db.backends:89] (0.002) SELECT `agglobal_userprofile`.`user_profile_id`, `agglobal_userprofile`.`first_name`, `agglobal_userprofile`.`last_name`, `agglobal_userprofile`.`email`, `agglobal_userprofile`.`company_name`, `agglobal_userprofile`.`domain`, `agglobal_userprofile`.`introduction`, `agglobal_userprofile`.`job_title`, `agglobal_userprofile`.`personal_profile`, `agglobal_userprofile`.`city`, `agglobal_userprofile`.`country`, `agglobal_userprofile`.`industry`, `agglobal_userprofile`.`industryofconcern`, `agglobal_userprofile`.`profession`, `agglobal_userprofile`.`profile_img`, `agglobal_userprofile`.`activation_key`, `agglobal_userprofile`.`key_expires`, `agglobal_userprofile`.`userid` FROM `agglobal_userprofile` WHERE `agglobal_userprofile`.`userid` = 133; args=(133,)
[19/Oct/2015 05:06:29] DEBUG [django.db.backends:89] (0.001) SELECT (1) AS `a` FROM `agglobal_message` WHERE (`agglobal_message`.`deleted` = 'F' AND `agglobal_message`.`parentid` = 13) LIMIT 1; args=('F', 13)
[19/Oct/2015 05:06:29] DEBUG [django.db.backends:89] (0.002) SELECT `agglobal_message`.`id`, `agglobal_message`.`subject`, `agglobal_message`.`body`, `agglobal_message`.`sender`, `agglobal_message`.`receiver`, `agglobal_message`.`read`, `agglobal_message`.`deleted`, `agglobal_message`.`senttime`, `agglobal_message`.`parentid` FROM `agglobal_message` WHERE (`agglobal_message`.`deleted` = 'F' AND `agglobal_message`.`parentid` = 13) ORDER BY `agglobal_message`.`senttime` ASC; args=('F', 13)
[19/Oct/2015 05:06:29] DEBUG [django.db.backends:89] (0.001) SELECT (1) AS `a` FROM `agglobal_message` WHERE (`agglobal_message`.`deleted` = 'F' AND `agglobal_message`.`id` IN (14)) LIMIT 1; args=('F', 14)
[19/Oct/2015 05:06:29] DEBUG [django.db.backends:89] (0.002) SELECT `agglobal_message`.`id`, `agglobal_message`.`subject`, `agglobal_message`.`body`, `agglobal_message`.`sender`, `agglobal_message`.`receiver`, `agglobal_message`.`read`, `agglobal_message`.`deleted`, `agglobal_message`.`senttime`, `agglobal_message`.`parentid` FROM `agglobal_message` WHERE (`agglobal_message`.`deleted` = 'F' AND `agglobal_message`.`id` IN (14)) ORDER BY `agglobal_message`.`senttime` ASC; args=('F', 14)
[19/Oct/2015 05:06:29] DEBUG [django.db.backends:89] (0.002) SELECT `auth_user`.`id`, `auth_user`.`password`, `auth_user`.`last_login`, `auth_user`.`is_superuser`, `auth_user`.`username`, `auth_user`.`first_name`, `auth_user`.`last_name`, `auth_user`.`email`, `auth_user`.`is_staff`, `auth_user`.`is_active`, `auth_user`.`date_joined` FROM `auth_user` WHERE `auth_user`.`id` = 45; args=(45,)
[19/Oct/2015 05:06:29] DEBUG [django.db.backends:89] (0.001) SELECT (1) AS `a` FROM `agglobal_userprofile` WHERE `agglobal_userprofile`.`userid` = 45 LIMIT 1; args=(45,)
[19/Oct/2015 05:06:29] DEBUG [django.db.backends:89] (0.002) SELECT `agglobal_userprofile`.`user_profile_id`, `agglobal_userprofile`.`first_name`, `agglobal_userprofile`.`last_name`, `agglobal_userprofile`.`email`, `agglobal_userprofile`.`company_name`, `agglobal_userprofile`.`domain`, `agglobal_userprofile`.`introduction`, `agglobal_userprofile`.`job_title`, `agglobal_userprofile`.`personal_profile`, `agglobal_userprofile`.`city`, `agglobal_userprofile`.`country`, `agglobal_userprofile`.`industry`, `agglobal_userprofile`.`industryofconcern`, `agglobal_userprofile`.`profession`, `agglobal_userprofile`.`profile_img`, `agglobal_userprofile`.`activation_key`, `agglobal_userprofile`.`key_expires`, `agglobal_userprofile`.`userid` FROM `agglobal_userprofile` WHERE `agglobal_userprofile`.`userid` = 45 LIMIT 1; args=(45,)
[19/Oct/2015 05:06:29] DEBUG [django.db.backends:89] (0.002) SELECT `agglobal_userprofile`.`user_profile_id`, `agglobal_userprofile`.`first_name`, `agglobal_userprofile`.`last_name`, `agglobal_userprofile`.`email`, `agglobal_userprofile`.`company_name`, `agglobal_userprofile`.`domain`, `agglobal_userprofile`.`introduction`, `agglobal_userprofile`.`job_title`, `agglobal_userprofile`.`personal_profile`, `agglobal_userprofile`.`city`, `agglobal_userprofile`.`country`, `agglobal_userprofile`.`industry`, `agglobal_userprofile`.`industryofconcern`, `agglobal_userprofile`.`profession`, `agglobal_userprofile`.`profile_img`, `agglobal_userprofile`.`activation_key`, `agglobal_userprofile`.`key_expires`, `agglobal_userprofile`.`userid` FROM `agglobal_userprofile` WHERE `agglobal_userprofile`.`userid` = 45; args=(45,)
[19/Oct/2015 05:06:29] DEBUG [django.db.backends:89] (0.002) SELECT `auth_user`.`id`, `auth_user`.`password`, `auth_user`.`last_login`, `auth_user`.`is_superuser`, `auth_user`.`username`, `auth_user`.`first_name`, `auth_user`.`last_name`, `auth_user`.`email`, `auth_user`.`is_staff`, `auth_user`.`is_active`, `auth_user`.`date_joined` FROM `auth_user` WHERE `auth_user`.`id` = 133; args=(133,)
[19/Oct/2015 05:06:29] DEBUG [django.db.backends:89] (0.001) SELECT (1) AS `a` FROM `agglobal_userprofile` WHERE `agglobal_userprofile`.`userid` = 133 LIMIT 1; args=(133,)
[19/Oct/2015 05:06:29] DEBUG [django.db.backends:89] (0.002) SELECT `agglobal_userprofile`.`user_profile_id`, `agglobal_userprofile`.`first_name`, `agglobal_userprofile`.`last_name`, `agglobal_userprofile`.`email`, `agglobal_userprofile`.`company_name`, `agglobal_userprofile`.`domain`, `agglobal_userprofile`.`introduction`, `agglobal_userprofile`.`job_title`, `agglobal_userprofile`.`personal_profile`, `agglobal_userprofile`.`city`, `agglobal_userprofile`.`country`, `agglobal_userprofile`.`industry`, `agglobal_userprofile`.`industryofconcern`, `agglobal_userprofile`.`profession`, `agglobal_userprofile`.`profile_img`, `agglobal_userprofile`.`activation_key`, `agglobal_userprofile`.`key_expires`, `agglobal_userprofile`.`userid` FROM `agglobal_userprofile` WHERE `agglobal_userprofile`.`userid` = 133; args=(133,)
[19/Oct/2015 05:06:29] DEBUG [django.db.backends:89] (0.001) SELECT (1) AS `a` FROM `agglobal_message` WHERE (`agglobal_message`.`deleted` = 'F' AND `agglobal_message`.`parentid` = 14) LIMIT 1; args=('F', 14)
[19/Oct/2015 05:09:52] DEBUG [django.db.backends:89] (0.000) SET SQL_AUTO_IS_NULL = 0; args=None
[19/Oct/2015 05:09:52] DEBUG [django.db.backends:89] (0.001) SELECT (1) AS `a` FROM `agglobal_message` WHERE (`agglobal_message`.`deleted` = 'F' AND `agglobal_message`.`id` IN (3)) LIMIT 1; args=('F', 3)
[19/Oct/2015 05:09:52] DEBUG [django.db.backends:89] (0.002) SELECT `agglobal_message`.`id`, `agglobal_message`.`subject`, `agglobal_message`.`body`, `agglobal_message`.`sender`, `agglobal_message`.`receiver`, `agglobal_message`.`read`, `agglobal_message`.`deleted`, `agglobal_message`.`senttime`, `agglobal_message`.`parentid` FROM `agglobal_message` WHERE (`agglobal_message`.`deleted` = 'F' AND `agglobal_message`.`id` IN (3)) ORDER BY `agglobal_message`.`senttime` ASC; args=('F', 3)
[19/Oct/2015 05:09:52] DEBUG [django.db.backends:89] (0.002) SELECT `auth_user`.`id`, `auth_user`.`password`, `auth_user`.`last_login`, `auth_user`.`is_superuser`, `auth_user`.`username`, `auth_user`.`first_name`, `auth_user`.`last_name`, `auth_user`.`email`, `auth_user`.`is_staff`, `auth_user`.`is_active`, `auth_user`.`date_joined` FROM `auth_user` WHERE `auth_user`.`id` = 133; args=(133,)
[19/Oct/2015 05:09:52] DEBUG [django.db.backends:89] (0.001) SELECT (1) AS `a` FROM `agglobal_userprofile` WHERE `agglobal_userprofile`.`userid` = 133 LIMIT 1; args=(133,)
[19/Oct/2015 05:09:52] DEBUG [django.db.backends:89] (0.002) SELECT `agglobal_userprofile`.`user_profile_id`, `agglobal_userprofile`.`first_name`, `agglobal_userprofile`.`last_name`, `agglobal_userprofile`.`email`, `agglobal_userprofile`.`company_name`, `agglobal_userprofile`.`domain`, `agglobal_userprofile`.`introduction`, `agglobal_userprofile`.`job_title`, `agglobal_userprofile`.`personal_profile`, `agglobal_userprofile`.`city`, `agglobal_userprofile`.`country`, `agglobal_userprofile`.`industry`, `agglobal_userprofile`.`industryofconcern`, `agglobal_userprofile`.`profession`, `agglobal_userprofile`.`profile_img`, `agglobal_userprofile`.`activation_key`, `agglobal_userprofile`.`key_expires`, `agglobal_userprofile`.`userid` FROM `agglobal_userprofile` WHERE `agglobal_userprofile`.`userid` = 133 LIMIT 1; args=(133,)
[19/Oct/2015 05:09:52] DEBUG [django.db.backends:89] (0.002) SELECT `agglobal_userprofile`.`user_profile_id`, `agglobal_userprofile`.`first_name`, `agglobal_userprofile`.`last_name`, `agglobal_userprofile`.`email`, `agglobal_userprofile`.`company_name`, `agglobal_userprofile`.`domain`, `agglobal_userprofile`.`introduction`, `agglobal_userprofile`.`job_title`, `agglobal_userprofile`.`personal_profile`, `agglobal_userprofile`.`city`, `agglobal_userprofile`.`country`, `agglobal_userprofile`.`industry`, `agglobal_userprofile`.`industryofconcern`, `agglobal_userprofile`.`profession`, `agglobal_userprofile`.`profile_img`, `agglobal_userprofile`.`activation_key`, `agglobal_userprofile`.`key_expires`, `agglobal_userprofile`.`userid` FROM `agglobal_userprofile` WHERE `agglobal_userprofile`.`userid` = 133; args=(133,)
[19/Oct/2015 05:09:52] DEBUG [django.db.backends:89] (0.001) SELECT `auth_user`.`id`, `auth_user`.`password`, `auth_user`.`last_login`, `auth_user`.`is_superuser`, `auth_user`.`username`, `auth_user`.`first_name`, `auth_user`.`last_name`, `auth_user`.`email`, `auth_user`.`is_staff`, `auth_user`.`is_active`, `auth_user`.`date_joined` FROM `auth_user` WHERE `auth_user`.`id` = 45; args=(45,)
[19/Oct/2015 05:09:52] DEBUG [django.db.backends:89] (0.001) SELECT (1) AS `a` FROM `agglobal_userprofile` WHERE `agglobal_userprofile`.`userid` = 45 LIMIT 1; args=(45,)
[19/Oct/2015 05:09:52] DEBUG [django.db.backends:89] (0.002) SELECT `agglobal_userprofile`.`user_profile_id`, `agglobal_userprofile`.`first_name`, `agglobal_userprofile`.`last_name`, `agglobal_userprofile`.`email`, `agglobal_userprofile`.`company_name`, `agglobal_userprofile`.`domain`, `agglobal_userprofile`.`introduction`, `agglobal_userprofile`.`job_title`, `agglobal_userprofile`.`personal_profile`, `agglobal_userprofile`.`city`, `agglobal_userprofile`.`country`, `agglobal_userprofile`.`industry`, `agglobal_userprofile`.`industryofconcern`, `agglobal_userprofile`.`profession`, `agglobal_userprofile`.`profile_img`, `agglobal_userprofile`.`activation_key`, `agglobal_userprofile`.`key_expires`, `agglobal_userprofile`.`userid` FROM `agglobal_userprofile` WHERE `agglobal_userprofile`.`userid` = 45; args=(45,)
[19/Oct/2015 05:09:52] DEBUG [django.db.backends:89] (0.001) SELECT (1) AS `a` FROM `agglobal_message` WHERE (`agglobal_message`.`deleted` = 'F' AND `agglobal_message`.`parentid` = 3) LIMIT 1; args=('F', 3)
[19/Oct/2015 05:09:52] DEBUG [django.db.backends:89] (0.002) SELECT `agglobal_message`.`id`, `agglobal_message`.`subject`, `agglobal_message`.`body`, `agglobal_message`.`sender`, `agglobal_message`.`receiver`, `agglobal_message`.`read`, `agglobal_message`.`deleted`, `agglobal_message`.`senttime`, `agglobal_message`.`parentid` FROM `agglobal_message` WHERE (`agglobal_message`.`deleted` = 'F' AND `agglobal_message`.`parentid` = 3) ORDER BY `agglobal_message`.`senttime` ASC; args=('F', 3)
[19/Oct/2015 05:09:52] DEBUG [django.db.backends:89] (0.001) SELECT (1) AS `a` FROM `agglobal_message` WHERE (`agglobal_message`.`deleted` = 'F' AND `agglobal_message`.`id` IN (4)) LIMIT 1; args=('F', 4)
[19/Oct/2015 05:09:52] DEBUG [django.db.backends:89] (0.002) SELECT `agglobal_message`.`id`, `agglobal_message`.`subject`, `agglobal_message`.`body`, `agglobal_message`.`sender`, `agglobal_message`.`receiver`, `agglobal_message`.`read`, `agglobal_message`.`deleted`, `agglobal_message`.`senttime`, `agglobal_message`.`parentid` FROM `agglobal_message` WHERE (`agglobal_message`.`deleted` = 'F' AND `agglobal_message`.`id` IN (4)) ORDER BY `agglobal_message`.`senttime` ASC; args=('F', 4)
[19/Oct/2015 05:09:52] DEBUG [django.db.backends:89] (0.002) SELECT `auth_user`.`id`, `auth_user`.`password`, `auth_user`.`last_login`, `auth_user`.`is_superuser`, `auth_user`.`username`, `auth_user`.`first_name`, `auth_user`.`last_name`, `auth_user`.`email`, `auth_user`.`is_staff`, `auth_user`.`is_active`, `auth_user`.`date_joined` FROM `auth_user` WHERE `auth_user`.`id` = 45; args=(45,)
[19/Oct/2015 05:09:52] DEBUG [django.db.backends:89] (0.001) SELECT (1) AS `a` FROM `agglobal_userprofile` WHERE `agglobal_userprofile`.`userid` = 45 LIMIT 1; args=(45,)
[19/Oct/2015 05:09:52] DEBUG [django.db.backends:89] (0.002) SELECT `agglobal_userprofile`.`user_profile_id`, `agglobal_userprofile`.`first_name`, `agglobal_userprofile`.`last_name`, `agglobal_userprofile`.`email`, `agglobal_userprofile`.`company_name`, `agglobal_userprofile`.`domain`, `agglobal_userprofile`.`introduction`, `agglobal_userprofile`.`job_title`, `agglobal_userprofile`.`personal_profile`, `agglobal_userprofile`.`city`, `agglobal_userprofile`.`country`, `agglobal_userprofile`.`industry`, `agglobal_userprofile`.`industryofconcern`, `agglobal_userprofile`.`profession`, `agglobal_userprofile`.`profile_img`, `agglobal_userprofile`.`activation_key`, `agglobal_userprofile`.`key_expires`, `agglobal_userprofile`.`userid` FROM `agglobal_userprofile` WHERE `agglobal_userprofile`.`userid` = 45 LIMIT 1; args=(45,)
[19/Oct/2015 05:09:52] DEBUG [django.db.backends:89] (0.002) SELECT `agglobal_userprofile`.`user_profile_id`, `agglobal_userprofile`.`first_name`, `agglobal_userprofile`.`last_name`, `agglobal_userprofile`.`email`, `agglobal_userprofile`.`company_name`, `agglobal_userprofile`.`domain`, `agglobal_userprofile`.`introduction`, `agglobal_userprofile`.`job_title`, `agglobal_userprofile`.`personal_profile`, `agglobal_userprofile`.`city`, `agglobal_userprofile`.`country`, `agglobal_userprofile`.`industry`, `agglobal_userprofile`.`industryofconcern`, `agglobal_userprofile`.`profession`, `agglobal_userprofile`.`profile_img`, `agglobal_userprofile`.`activation_key`, `agglobal_userprofile`.`key_expires`, `agglobal_userprofile`.`userid` FROM `agglobal_userprofile` WHERE `agglobal_userprofile`.`userid` = 45; args=(45,)
[19/Oct/2015 05:09:52] DEBUG [django.db.backends:89] (0.002) SELECT `auth_user`.`id`, `auth_user`.`password`, `auth_user`.`last_login`, `auth_user`.`is_superuser`, `auth_user`.`username`, `auth_user`.`first_name`, `auth_user`.`last_name`, `auth_user`.`email`, `auth_user`.`is_staff`, `auth_user`.`is_active`, `auth_user`.`date_joined` FROM `auth_user` WHERE `auth_user`.`id` = 133; args=(133,)
[19/Oct/2015 05:09:52] DEBUG [django.db.backends:89] (0.001) SELECT (1) AS `a` FROM `agglobal_userprofile` WHERE `agglobal_userprofile`.`userid` = 133 LIMIT 1; args=(133,)
[19/Oct/2015 05:09:52] DEBUG [django.db.backends:89] (0.002) SELECT `agglobal_userprofile`.`user_profile_id`, `agglobal_userprofile`.`first_name`, `agglobal_userprofile`.`last_name`, `agglobal_userprofile`.`email`, `agglobal_userprofile`.`company_name`, `agglobal_userprofile`.`domain`, `agglobal_userprofile`.`introduction`, `agglobal_userprofile`.`job_title`, `agglobal_userprofile`.`personal_profile`, `agglobal_userprofile`.`city`, `agglobal_userprofile`.`country`, `agglobal_userprofile`.`industry`, `agglobal_userprofile`.`industryofconcern`, `agglobal_userprofile`.`profession`, `agglobal_userprofile`.`profile_img`, `agglobal_userprofile`.`activation_key`, `agglobal_userprofile`.`key_expires`, `agglobal_userprofile`.`userid` FROM `agglobal_userprofile` WHERE `agglobal_userprofile`.`userid` = 133; args=(133,)
[19/Oct/2015 05:09:52] DEBUG [django.db.backends:89] (0.001) SELECT (1) AS `a` FROM `agglobal_message` WHERE (`agglobal_message`.`deleted` = 'F' AND `agglobal_message`.`parentid` = 4) LIMIT 1; args=('F', 4)
[19/Oct/2015 05:09:52] DEBUG [django.db.backends:89] (0.002) SELECT `agglobal_message`.`id`, `agglobal_message`.`subject`, `agglobal_message`.`body`, `agglobal_message`.`sender`, `agglobal_message`.`receiver`, `agglobal_message`.`read`, `agglobal_message`.`deleted`, `agglobal_message`.`senttime`, `agglobal_message`.`parentid` FROM `agglobal_message` WHERE (`agglobal_message`.`deleted` = 'F' AND `agglobal_message`.`parentid` = 4) ORDER BY `agglobal_message`.`senttime` ASC; args=('F', 4)
[19/Oct/2015 05:09:52] DEBUG [django.db.backends:89] (0.001) SELECT (1) AS `a` FROM `agglobal_message` WHERE (`agglobal_message`.`deleted` = 'F' AND `agglobal_message`.`id` IN (13)) LIMIT 1; args=('F', 13)
[19/Oct/2015 05:09:52] DEBUG [django.db.backends:89] (0.002) SELECT `agglobal_message`.`id`, `agglobal_message`.`subject`, `agglobal_message`.`body`, `agglobal_message`.`sender`, `agglobal_message`.`receiver`, `agglobal_message`.`read`, `agglobal_message`.`deleted`, `agglobal_message`.`senttime`, `agglobal_message`.`parentid` FROM `agglobal_message` WHERE (`agglobal_message`.`deleted` = 'F' AND `agglobal_message`.`id` IN (13)) ORDER BY `agglobal_message`.`senttime` ASC; args=('F', 13)
[19/Oct/2015 05:09:52] DEBUG [django.db.backends:89] (0.002) SELECT `auth_user`.`id`, `auth_user`.`password`, `auth_user`.`last_login`, `auth_user`.`is_superuser`, `auth_user`.`username`, `auth_user`.`first_name`, `auth_user`.`last_name`, `auth_user`.`email`, `auth_user`.`is_staff`, `auth_user`.`is_active`, `auth_user`.`date_joined` FROM `auth_user` WHERE `auth_user`.`id` = 45; args=(45,)
[19/Oct/2015 05:09:52] DEBUG [django.db.backends:89] (0.001) SELECT (1) AS `a` FROM `agglobal_userprofile` WHERE `agglobal_userprofile`.`userid` = 45 LIMIT 1; args=(45,)
[19/Oct/2015 05:09:52] DEBUG [django.db.backends:89] (0.002) SELECT `agglobal_userprofile`.`user_profile_id`, `agglobal_userprofile`.`first_name`, `agglobal_userprofile`.`last_name`, `agglobal_userprofile`.`email`, `agglobal_userprofile`.`company_name`, `agglobal_userprofile`.`domain`, `agglobal_userprofile`.`introduction`, `agglobal_userprofile`.`job_title`, `agglobal_userprofile`.`personal_profile`, `agglobal_userprofile`.`city`, `agglobal_userprofile`.`country`, `agglobal_userprofile`.`industry`, `agglobal_userprofile`.`industryofconcern`, `agglobal_userprofile`.`profession`, `agglobal_userprofile`.`profile_img`, `agglobal_userprofile`.`activation_key`, `agglobal_userprofile`.`key_expires`, `agglobal_userprofile`.`userid` FROM `agglobal_userprofile` WHERE `agglobal_userprofile`.`userid` = 45 LIMIT 1; args=(45,)
[19/Oct/2015 05:09:52] DEBUG [django.db.backends:89] (0.002) SELECT `agglobal_userprofile`.`user_profile_id`, `agglobal_userprofile`.`first_name`, `agglobal_userprofile`.`last_name`, `agglobal_userprofile`.`email`, `agglobal_userprofile`.`company_name`, `agglobal_userprofile`.`domain`, `agglobal_userprofile`.`introduction`, `agglobal_userprofile`.`job_title`, `agglobal_userprofile`.`personal_profile`, `agglobal_userprofile`.`city`, `agglobal_userprofile`.`country`, `agglobal_userprofile`.`industry`, `agglobal_userprofile`.`industryofconcern`, `agglobal_userprofile`.`profession`, `agglobal_userprofile`.`profile_img`, `agglobal_userprofile`.`activation_key`, `agglobal_userprofile`.`key_expires`, `agglobal_userprofile`.`userid` FROM `agglobal_userprofile` WHERE `agglobal_userprofile`.`userid` = 45; args=(45,)
[19/Oct/2015 05:09:52] DEBUG [django.db.backends:89] (0.002) SELECT `auth_user`.`id`, `auth_user`.`password`, `auth_user`.`last_login`, `auth_user`.`is_superuser`, `auth_user`.`username`, `auth_user`.`first_name`, `auth_user`.`last_name`, `auth_user`.`email`, `auth_user`.`is_staff`, `auth_user`.`is_active`, `auth_user`.`date_joined` FROM `auth_user` WHERE `auth_user`.`id` = 133; args=(133,)
[19/Oct/2015 05:09:52] DEBUG [django.db.backends:89] (0.001) SELECT (1) AS `a` FROM `agglobal_userprofile` WHERE `agglobal_userprofile`.`userid` = 133 LIMIT 1; args=(133,)
[19/Oct/2015 05:09:52] DEBUG [django.db.backends:89] (0.002) SELECT `agglobal_userprofile`.`user_profile_id`, `agglobal_userprofile`.`first_name`, `agglobal_userprofile`.`last_name`, `agglobal_userprofile`.`email`, `agglobal_userprofile`.`company_name`, `agglobal_userprofile`.`domain`, `agglobal_userprofile`.`introduction`, `agglobal_userprofile`.`job_title`, `agglobal_userprofile`.`personal_profile`, `agglobal_userprofile`.`city`, `agglobal_userprofile`.`country`, `agglobal_userprofile`.`industry`, `agglobal_userprofile`.`industryofconcern`, `agglobal_userprofile`.`profession`, `agglobal_userprofile`.`profile_img`, `agglobal_userprofile`.`activation_key`, `agglobal_userprofile`.`key_expires`, `agglobal_userprofile`.`userid` FROM `agglobal_userprofile` WHERE `agglobal_userprofile`.`userid` = 133; args=(133,)
[19/Oct/2015 05:09:52] DEBUG [django.db.backends:89] (0.001) SELECT (1) AS `a` FROM `agglobal_message` WHERE (`agglobal_message`.`deleted` = 'F' AND `agglobal_message`.`parentid` = 13) LIMIT 1; args=('F', 13)
[19/Oct/2015 05:09:52] DEBUG [django.db.backends:89] (0.002) SELECT `agglobal_message`.`id`, `agglobal_message`.`subject`, `agglobal_message`.`body`, `agglobal_message`.`sender`, `agglobal_message`.`receiver`, `agglobal_message`.`read`, `agglobal_message`.`deleted`, `agglobal_message`.`senttime`, `agglobal_message`.`parentid` FROM `agglobal_message` WHERE (`agglobal_message`.`deleted` = 'F' AND `agglobal_message`.`parentid` = 13) ORDER BY `agglobal_message`.`senttime` ASC; args=('F', 13)
[19/Oct/2015 05:09:52] DEBUG [django.db.backends:89] (0.001) SELECT (1) AS `a` FROM `agglobal_message` WHERE (`agglobal_message`.`deleted` = 'F' AND `agglobal_message`.`id` IN (14)) LIMIT 1; args=('F', 14)
[19/Oct/2015 05:09:52] DEBUG [django.db.backends:89] (0.002) SELECT `agglobal_message`.`id`, `agglobal_message`.`subject`, `agglobal_message`.`body`, `agglobal_message`.`sender`, `agglobal_message`.`receiver`, `agglobal_message`.`read`, `agglobal_message`.`deleted`, `agglobal_message`.`senttime`, `agglobal_message`.`parentid` FROM `agglobal_message` WHERE (`agglobal_message`.`deleted` = 'F' AND `agglobal_message`.`id` IN (14)) ORDER BY `agglobal_message`.`senttime` ASC; args=('F', 14)
[19/Oct/2015 05:09:52] DEBUG [django.db.backends:89] (0.001) SELECT `auth_user`.`id`, `auth_user`.`password`, `auth_user`.`last_login`, `auth_user`.`is_superuser`, `auth_user`.`username`, `auth_user`.`first_name`, `auth_user`.`last_name`, `auth_user`.`email`, `auth_user`.`is_staff`, `auth_user`.`is_active`, `auth_user`.`date_joined` FROM `auth_user` WHERE `auth_user`.`id` = 45; args=(45,)
[19/Oct/2015 05:09:52] DEBUG [django.db.backends:89] (0.001) SELECT (1) AS `a` FROM `agglobal_userprofile` WHERE `agglobal_userprofile`.`userid` = 45 LIMIT 1; args=(45,)
[19/Oct/2015 05:09:52] DEBUG [django.db.backends:89] (0.002) SELECT `agglobal_userprofile`.`user_profile_id`, `agglobal_userprofile`.`first_name`, `agglobal_userprofile`.`last_name`, `agglobal_userprofile`.`email`, `agglobal_userprofile`.`company_name`, `agglobal_userprofile`.`domain`, `agglobal_userprofile`.`introduction`, `agglobal_userprofile`.`job_title`, `agglobal_userprofile`.`personal_profile`, `agglobal_userprofile`.`city`, `agglobal_userprofile`.`country`, `agglobal_userprofile`.`industry`, `agglobal_userprofile`.`industryofconcern`, `agglobal_userprofile`.`profession`, `agglobal_userprofile`.`profile_img`, `agglobal_userprofile`.`activation_key`, `agglobal_userprofile`.`key_expires`, `agglobal_userprofile`.`userid` FROM `agglobal_userprofile` WHERE `agglobal_userprofile`.`userid` = 45 LIMIT 1; args=(45,)
[19/Oct/2015 05:09:52] DEBUG [django.db.backends:89] (0.002) SELECT `agglobal_userprofile`.`user_profile_id`, `agglobal_userprofile`.`first_name`, `agglobal_userprofile`.`last_name`, `agglobal_userprofile`.`email`, `agglobal_userprofile`.`company_name`, `agglobal_userprofile`.`domain`, `agglobal_userprofile`.`introduction`, `agglobal_userprofile`.`job_title`, `agglobal_userprofile`.`personal_profile`, `agglobal_userprofile`.`city`, `agglobal_userprofile`.`country`, `agglobal_userprofile`.`industry`, `agglobal_userprofile`.`industryofconcern`, `agglobal_userprofile`.`profession`, `agglobal_userprofile`.`profile_img`, `agglobal_userprofile`.`activation_key`, `agglobal_userprofile`.`key_expires`, `agglobal_userprofile`.`userid` FROM `agglobal_userprofile` WHERE `agglobal_userprofile`.`userid` = 45; args=(45,)
[19/Oct/2015 05:09:52] DEBUG [django.db.backends:89] (0.002) SELECT `auth_user`.`id`, `auth_user`.`password`, `auth_user`.`last_login`, `auth_user`.`is_superuser`, `auth_user`.`username`, `auth_user`.`first_name`, `auth_user`.`last_name`, `auth_user`.`email`, `auth_user`.`is_staff`, `auth_user`.`is_active`, `auth_user`.`date_joined` FROM `auth_user` WHERE `auth_user`.`id` = 133; args=(133,)
[19/Oct/2015 05:09:52] DEBUG [django.db.backends:89] (0.001) SELECT (1) AS `a` FROM `agglobal_userprofile` WHERE `agglobal_userprofile`.`userid` = 133 LIMIT 1; args=(133,)
[19/Oct/2015 05:09:52] DEBUG [django.db.backends:89] (0.002) SELECT `agglobal_userprofile`.`user_profile_id`, `agglobal_userprofile`.`first_name`, `agglobal_userprofile`.`last_name`, `agglobal_userprofile`.`email`, `agglobal_userprofile`.`company_name`, `agglobal_userprofile`.`domain`, `agglobal_userprofile`.`introduction`, `agglobal_userprofile`.`job_title`, `agglobal_userprofile`.`personal_profile`, `agglobal_userprofile`.`city`, `agglobal_userprofile`.`country`, `agglobal_userprofile`.`industry`, `agglobal_userprofile`.`industryofconcern`, `agglobal_userprofile`.`profession`, `agglobal_userprofile`.`profile_img`, `agglobal_userprofile`.`activation_key`, `agglobal_userprofile`.`key_expires`, `agglobal_userprofile`.`userid` FROM `agglobal_userprofile` WHERE `agglobal_userprofile`.`userid` = 133; args=(133,)
[19/Oct/2015 05:09:52] DEBUG [django.db.backends:89] (0.001) SELECT (1) AS `a` FROM `agglobal_message` WHERE (`agglobal_message`.`deleted` = 'F' AND `agglobal_message`.`parentid` = 14) LIMIT 1; args=('F', 14)
[19/Oct/2015 05:09:52] DEBUG [django.db.backends:89] (0.002) SELECT `agglobal_message`.`id`, `agglobal_message`.`subject`, `agglobal_message`.`body`, `agglobal_message`.`sender`, `agglobal_message`.`receiver`, `agglobal_message`.`read`, `agglobal_message`.`deleted`, `agglobal_message`.`senttime`, `agglobal_message`.`parentid` FROM `agglobal_message` WHERE (`agglobal_message`.`deleted` = 'F' AND `agglobal_message`.`parentid` = 14) ORDER BY `agglobal_message`.`senttime` ASC; args=('F', 14)
[19/Oct/2015 05:09:52] DEBUG [django.db.backends:89] (0.001) SELECT (1) AS `a` FROM `agglobal_message` WHERE (`agglobal_message`.`deleted` = 'F' AND `agglobal_message`.`id` IN (16)) LIMIT 1; args=('F', 16)
[19/Oct/2015 05:09:52] DEBUG [django.db.backends:89] (0.002) SELECT `agglobal_message`.`id`, `agglobal_message`.`subject`, `agglobal_message`.`body`, `agglobal_message`.`sender`, `agglobal_message`.`receiver`, `agglobal_message`.`read`, `agglobal_message`.`deleted`, `agglobal_message`.`senttime`, `agglobal_message`.`parentid` FROM `agglobal_message` WHERE (`agglobal_message`.`deleted` = 'F' AND `agglobal_message`.`id` IN (16)) ORDER BY `agglobal_message`.`senttime` ASC; args=('F', 16)
[19/Oct/2015 05:09:52] DEBUG [django.db.backends:89] (0.002) SELECT `auth_user`.`id`, `auth_user`.`password`, `auth_user`.`last_login`, `auth_user`.`is_superuser`, `auth_user`.`username`, `auth_user`.`first_name`, `auth_user`.`last_name`, `auth_user`.`email`, `auth_user`.`is_staff`, `auth_user`.`is_active`, `auth_user`.`date_joined` FROM `auth_user` WHERE `auth_user`.`id` = 45; args=(45,)
[19/Oct/2015 05:09:52] DEBUG [django.db.backends:89] (0.001) SELECT (1) AS `a` FROM `agglobal_userprofile` WHERE `agglobal_userprofile`.`userid` = 45 LIMIT 1; args=(45,)
[19/Oct/2015 05:09:52] DEBUG [django.db.backends:89] (0.002) SELECT `agglobal_userprofile`.`user_profile_id`, `agglobal_userprofile`.`first_name`, `agglobal_userprofile`.`last_name`, `agglobal_userprofile`.`email`, `agglobal_userprofile`.`company_name`, `agglobal_userprofile`.`domain`, `agglobal_userprofile`.`introduction`, `agglobal_userprofile`.`job_title`, `agglobal_userprofile`.`personal_profile`, `agglobal_userprofile`.`city`, `agglobal_userprofile`.`country`, `agglobal_userprofile`.`industry`, `agglobal_userprofile`.`industryofconcern`, `agglobal_userprofile`.`profession`, `agglobal_userprofile`.`profile_img`, `agglobal_userprofile`.`activation_key`, `agglobal_userprofile`.`key_expires`, `agglobal_userprofile`.`userid` FROM `agglobal_userprofile` WHERE `agglobal_userprofile`.`userid` = 45 LIMIT 1; args=(45,)
[19/Oct/2015 05:09:52] DEBUG [django.db.backends:89] (0.002) SELECT `agglobal_userprofile`.`user_profile_id`, `agglobal_userprofile`.`first_name`, `agglobal_userprofile`.`last_name`, `agglobal_userprofile`.`email`, `agglobal_userprofile`.`company_name`, `agglobal_userprofile`.`domain`, `agglobal_userprofile`.`introduction`, `agglobal_userprofile`.`job_title`, `agglobal_userprofile`.`personal_profile`, `agglobal_userprofile`.`city`, `agglobal_userprofile`.`country`, `agglobal_userprofile`.`industry`, `agglobal_userprofile`.`industryofconcern`, `agglobal_userprofile`.`profession`, `agglobal_userprofile`.`profile_img`, `agglobal_userprofile`.`activation_key`, `agglobal_userprofile`.`key_expires`, `agglobal_userprofile`.`userid` FROM `agglobal_userprofile` WHERE `agglobal_userprofile`.`userid` = 45; args=(45,)
[19/Oct/2015 05:09:52] DEBUG [django.db.backends:89] (0.002) SELECT `auth_user`.`id`, `auth_user`.`password`, `auth_user`.`last_login`, `auth_user`.`is_superuser`, `auth_user`.`username`, `auth_user`.`first_name`, `auth_user`.`last_name`, `auth_user`.`email`, `auth_user`.`is_staff`, `auth_user`.`is_active`, `auth_user`.`date_joined` FROM `auth_user` WHERE `auth_user`.`id` = 133; args=(133,)
[19/Oct/2015 05:09:52] DEBUG [django.db.backends:89] (0.001) SELECT (1) AS `a` FROM `agglobal_userprofile` WHERE `agglobal_userprofile`.`userid` = 133 LIMIT 1; args=(133,)
[19/Oct/2015 05:09:52] DEBUG [django.db.backends:89] (0.002) SELECT `agglobal_userprofile`.`user_profile_id`, `agglobal_userprofile`.`first_name`, `agglobal_userprofile`.`last_name`, `agglobal_userprofile`.`email`, `agglobal_userprofile`.`company_name`, `agglobal_userprofile`.`domain`, `agglobal_userprofile`.`introduction`, `agglobal_userprofile`.`job_title`, `agglobal_userprofile`.`personal_profile`, `agglobal_userprofile`.`city`, `agglobal_userprofile`.`country`, `agglobal_userprofile`.`industry`, `agglobal_userprofile`.`industryofconcern`, `agglobal_userprofile`.`profession`, `agglobal_userprofile`.`profile_img`, `agglobal_userprofile`.`activation_key`, `agglobal_userprofile`.`key_expires`, `agglobal_userprofile`.`userid` FROM `agglobal_userprofile` WHERE `agglobal_userprofile`.`userid` = 133; args=(133,)
[19/Oct/2015 05:09:52] DEBUG [django.db.backends:89] (0.001) SELECT (1) AS `a` FROM `agglobal_message` WHERE (`agglobal_message`.`deleted` = 'F' AND `agglobal_message`.`parentid` = 16) LIMIT 1; args=('F', 16)
[19/Oct/2015 05:13:28] DEBUG [django.db.backends:89] (0.000) SET SQL_AUTO_IS_NULL = 0; args=None
[19/Oct/2015 05:13:28] DEBUG [django.db.backends:89] (0.002) SELECT `agglobal_message`.`id`, `agglobal_message`.`subject`, `agglobal_message`.`body`, `agglobal_message`.`sender`, `agglobal_message`.`receiver`, `agglobal_message`.`read`, `agglobal_message`.`deleted`, `agglobal_message`.`senttime`, `agglobal_message`.`parentid` FROM `agglobal_message` WHERE (`agglobal_message`.`deleted` = 'F' AND `agglobal_message`.`sender` = 45 AND `agglobal_message`.`parentid` IS NULL) ORDER BY `agglobal_message`.`senttime` ASC; args=('F', 45)
[19/Oct/2015 05:13:28] DEBUG [django.db.backends:89] (0.002) SELECT `auth_user`.`id`, `auth_user`.`password`, `auth_user`.`last_login`, `auth_user`.`is_superuser`, `auth_user`.`username`, `auth_user`.`first_name`, `auth_user`.`last_name`, `auth_user`.`email`, `auth_user`.`is_staff`, `auth_user`.`is_active`, `auth_user`.`date_joined` FROM `auth_user` WHERE `auth_user`.`id` = 45; args=(45,)
[19/Oct/2015 05:13:28] DEBUG [django.db.backends:89] (0.001) SELECT (1) AS `a` FROM `agglobal_userprofile` WHERE `agglobal_userprofile`.`userid` = 45 LIMIT 1; args=(45,)
[19/Oct/2015 05:13:28] DEBUG [django.db.backends:89] (0.002) SELECT `agglobal_userprofile`.`user_profile_id`, `agglobal_userprofile`.`first_name`, `agglobal_userprofile`.`last_name`, `agglobal_userprofile`.`email`, `agglobal_userprofile`.`company_name`, `agglobal_userprofile`.`domain`, `agglobal_userprofile`.`introduction`, `agglobal_userprofile`.`job_title`, `agglobal_userprofile`.`personal_profile`, `agglobal_userprofile`.`city`, `agglobal_userprofile`.`country`, `agglobal_userprofile`.`industry`, `agglobal_userprofile`.`industryofconcern`, `agglobal_userprofile`.`profession`, `agglobal_userprofile`.`profile_img`, `agglobal_userprofile`.`activation_key`, `agglobal_userprofile`.`key_expires`, `agglobal_userprofile`.`userid` FROM `agglobal_userprofile` WHERE `agglobal_userprofile`.`userid` = 45 LIMIT 1; args=(45,)
[19/Oct/2015 05:13:28] DEBUG [django.db.backends:89] (0.002) SELECT `agglobal_userprofile`.`user_profile_id`, `agglobal_userprofile`.`first_name`, `agglobal_userprofile`.`last_name`, `agglobal_userprofile`.`email`, `agglobal_userprofile`.`company_name`, `agglobal_userprofile`.`domain`, `agglobal_userprofile`.`introduction`, `agglobal_userprofile`.`job_title`, `agglobal_userprofile`.`personal_profile`, `agglobal_userprofile`.`city`, `agglobal_userprofile`.`country`, `agglobal_userprofile`.`industry`, `agglobal_userprofile`.`industryofconcern`, `agglobal_userprofile`.`profession`, `agglobal_userprofile`.`profile_img`, `agglobal_userprofile`.`activation_key`, `agglobal_userprofile`.`key_expires`, `agglobal_userprofile`.`userid` FROM `agglobal_userprofile` WHERE `agglobal_userprofile`.`userid` = 45; args=(45,)
[19/Oct/2015 05:13:28] DEBUG [django.db.backends:89] (0.002) SELECT `auth_user`.`id`, `auth_user`.`password`, `auth_user`.`last_login`, `auth_user`.`is_superuser`, `auth_user`.`username`, `auth_user`.`first_name`, `auth_user`.`last_name`, `auth_user`.`email`, `auth_user`.`is_staff`, `auth_user`.`is_active`, `auth_user`.`date_joined` FROM `auth_user` WHERE `auth_user`.`id` = 46; args=(46,)
[19/Oct/2015 05:13:28] DEBUG [django.db.backends:89] (0.001) SELECT (1) AS `a` FROM `agglobal_userprofile` WHERE `agglobal_userprofile`.`userid` = 46 LIMIT 1; args=(46,)
[19/Oct/2015 05:13:28] DEBUG [django.db.backends:89] (0.002) SELECT `agglobal_investorprofile`.`investor_id`, `agglobal_investorprofile`.`first_name`, `agglobal_investorprofile`.`last_name`, `agglobal_investorprofile`.`email`, `agglobal_investorprofile`.`country`, `agglobal_investorprofile`.`city`, `agglobal_investorprofile`.`industryofconcern`, `agglobal_investorprofile`.`company_name`, `agglobal_investorprofile`.`job_title`, `agglobal_investorprofile`.`profession`, `agglobal_investorprofile`.`industry`, `agglobal_investorprofile`.`introduction`, `agglobal_investorprofile`.`personal_profile`, `agglobal_investorprofile`.`profile_img`, `agglobal_investorprofile`.`investment_field`, `agglobal_investorprofile`.`investment_location`, `agglobal_investorprofile`.`investment_budget`, `agglobal_investorprofile`.`investment_angel_status`, `agglobal_investorprofile`.`investment_pre_a_status`, `agglobal_investorprofile`.`investment_a_status`, `agglobal_investorprofile`.`investment_b_status`, `agglobal_investorprofile`.`investment_b_after_status`, `agglobal_investorprofile`.`activation_key`, `agglobal_investorprofile`.`key_expires`, `agglobal_investorprofile`.`userid`, `agglobal_investorprofile`.`certified` FROM `agglobal_investorprofile` WHERE `agglobal_investorprofile`.`userid` = 46; args=(46,)
[19/Oct/2015 05:13:28] DEBUG [django.db.backends:89] (0.002) SELECT `auth_user`.`id`, `auth_user`.`password`, `auth_user`.`last_login`, `auth_user`.`is_superuser`, `auth_user`.`username`, `auth_user`.`first_name`, `auth_user`.`last_name`, `auth_user`.`email`, `auth_user`.`is_staff`, `auth_user`.`is_active`, `auth_user`.`date_joined` FROM `auth_user` WHERE `auth_user`.`id` = 45; args=(45,)
[19/Oct/2015 05:13:28] DEBUG [django.db.backends:89] (0.001) SELECT (1) AS `a` FROM `agglobal_userprofile` WHERE `agglobal_userprofile`.`userid` = 45 LIMIT 1; args=(45,)
[19/Oct/2015 05:13:28] DEBUG [django.db.backends:89] (0.002) SELECT `agglobal_userprofile`.`user_profile_id`, `agglobal_userprofile`.`first_name`, `agglobal_userprofile`.`last_name`, `agglobal_userprofile`.`email`, `agglobal_userprofile`.`company_name`, `agglobal_userprofile`.`domain`, `agglobal_userprofile`.`introduction`, `agglobal_userprofile`.`job_title`, `agglobal_userprofile`.`personal_profile`, `agglobal_userprofile`.`city`, `agglobal_userprofile`.`country`, `agglobal_userprofile`.`industry`, `agglobal_userprofile`.`industryofconcern`, `agglobal_userprofile`.`profession`, `agglobal_userprofile`.`profile_img`, `agglobal_userprofile`.`activation_key`, `agglobal_userprofile`.`key_expires`, `agglobal_userprofile`.`userid` FROM `agglobal_userprofile` WHERE `agglobal_userprofile`.`userid` = 45 LIMIT 1; args=(45,)
[19/Oct/2015 05:13:28] DEBUG [django.db.backends:89] (0.002) SELECT `agglobal_userprofile`.`user_profile_id`, `agglobal_userprofile`.`first_name`, `agglobal_userprofile`.`last_name`, `agglobal_userprofile`.`email`, `agglobal_userprofile`.`company_name`, `agglobal_userprofile`.`domain`, `agglobal_userprofile`.`introduction`, `agglobal_userprofile`.`job_title`, `agglobal_userprofile`.`personal_profile`, `agglobal_userprofile`.`city`, `agglobal_userprofile`.`country`, `agglobal_userprofile`.`industry`, `agglobal_userprofile`.`industryofconcern`, `agglobal_userprofile`.`profession`, `agglobal_userprofile`.`profile_img`, `agglobal_userprofile`.`activation_key`, `agglobal_userprofile`.`key_expires`, `agglobal_userprofile`.`userid` FROM `agglobal_userprofile` WHERE `agglobal_userprofile`.`userid` = 45; args=(45,)
[19/Oct/2015 05:13:28] DEBUG [django.db.backends:89] (0.002) SELECT `auth_user`.`id`, `auth_user`.`password`, `auth_user`.`last_login`, `auth_user`.`is_superuser`, `auth_user`.`username`, `auth_user`.`first_name`, `auth_user`.`last_name`, `auth_user`.`email`, `auth_user`.`is_staff`, `auth_user`.`is_active`, `auth_user`.`date_joined` FROM `auth_user` WHERE `auth_user`.`id` = 151; args=(151,)
[19/Oct/2015 05:13:28] DEBUG [django.db.backends:89] (0.001) SELECT (1) AS `a` FROM `agglobal_userprofile` WHERE `agglobal_userprofile`.`userid` = 151 LIMIT 1; args=(151,)
[19/Oct/2015 05:13:28] DEBUG [django.db.backends:89] (0.002) SELECT `agglobal_userprofile`.`user_profile_id`, `agglobal_userprofile`.`first_name`, `agglobal_userprofile`.`last_name`, `agglobal_userprofile`.`email`, `agglobal_userprofile`.`company_name`, `agglobal_userprofile`.`domain`, `agglobal_userprofile`.`introduction`, `agglobal_userprofile`.`job_title`, `agglobal_userprofile`.`personal_profile`, `agglobal_userprofile`.`city`, `agglobal_userprofile`.`country`, `agglobal_userprofile`.`industry`, `agglobal_userprofile`.`industryofconcern`, `agglobal_userprofile`.`profession`, `agglobal_userprofile`.`profile_img`, `agglobal_userprofile`.`activation_key`, `agglobal_userprofile`.`key_expires`, `agglobal_userprofile`.`userid` FROM `agglobal_userprofile` WHERE `agglobal_userprofile`.`userid` = 151; args=(151,)
[19/Oct/2015 05:13:28] DEBUG [django.db.backends:89] (0.002) SELECT `auth_user`.`id`, `auth_user`.`password`, `auth_user`.`last_login`, `auth_user`.`is_superuser`, `auth_user`.`username`, `auth_user`.`first_name`, `auth_user`.`last_name`, `auth_user`.`email`, `auth_user`.`is_staff`, `auth_user`.`is_active`, `auth_user`.`date_joined` FROM `auth_user` WHERE `auth_user`.`id` = 45; args=(45,)
[19/Oct/2015 05:13:28] DEBUG [django.db.backends:89] (0.001) SELECT (1) AS `a` FROM `agglobal_userprofile` WHERE `agglobal_userprofile`.`userid` = 45 LIMIT 1; args=(45,)
[19/Oct/2015 05:13:28] DEBUG [django.db.backends:89] (0.002) SELECT `agglobal_userprofile`.`user_profile_id`, `agglobal_userprofile`.`first_name`, `agglobal_userprofile`.`last_name`, `agglobal_userprofile`.`email`, `agglobal_userprofile`.`company_name`, `agglobal_userprofile`.`domain`, `agglobal_userprofile`.`introduction`, `agglobal_userprofile`.`job_title`, `agglobal_userprofile`.`personal_profile`, `agglobal_userprofile`.`city`, `agglobal_userprofile`.`country`, `agglobal_userprofile`.`industry`, `agglobal_userprofile`.`industryofconcern`, `agglobal_userprofile`.`profession`, `agglobal_userprofile`.`profile_img`, `agglobal_userprofile`.`activation_key`, `agglobal_userprofile`.`key_expires`, `agglobal_userprofile`.`userid` FROM `agglobal_userprofile` WHERE `agglobal_userprofile`.`userid` = 45 LIMIT 1; args=(45,)
[19/Oct/2015 05:13:28] DEBUG [django.db.backends:89] (0.002) SELECT `agglobal_userprofile`.`user_profile_id`, `agglobal_userprofile`.`first_name`, `agglobal_userprofile`.`last_name`, `agglobal_userprofile`.`email`, `agglobal_userprofile`.`company_name`, `agglobal_userprofile`.`domain`, `agglobal_userprofile`.`introduction`, `agglobal_userprofile`.`job_title`, `agglobal_userprofile`.`personal_profile`, `agglobal_userprofile`.`city`, `agglobal_userprofile`.`country`, `agglobal_userprofile`.`industry`, `agglobal_userprofile`.`industryofconcern`, `agglobal_userprofile`.`profession`, `agglobal_userprofile`.`profile_img`, `agglobal_userprofile`.`activation_key`, `agglobal_userprofile`.`key_expires`, `agglobal_userprofile`.`userid` FROM `agglobal_userprofile` WHERE `agglobal_userprofile`.`userid` = 45; args=(45,)
[19/Oct/2015 05:13:28] DEBUG [django.db.backends:89] (0.002) SELECT `auth_user`.`id`, `auth_user`.`password`, `auth_user`.`last_login`, `auth_user`.`is_superuser`, `auth_user`.`username`, `auth_user`.`first_name`, `auth_user`.`last_name`, `auth_user`.`email`, `auth_user`.`is_staff`, `auth_user`.`is_active`, `auth_user`.`date_joined` FROM `auth_user` WHERE `auth_user`.`id` = 151; args=(151,)
[19/Oct/2015 05:13:28] DEBUG [django.db.backends:89] (0.001) SELECT (1) AS `a` FROM `agglobal_userprofile` WHERE `agglobal_userprofile`.`userid` = 151 LIMIT 1; args=(151,)
[19/Oct/2015 05:13:28] DEBUG [django.db.backends:89] (0.002) SELECT `agglobal_userprofile`.`user_profile_id`, `agglobal_userprofile`.`first_name`, `agglobal_userprofile`.`last_name`, `agglobal_userprofile`.`email`, `agglobal_userprofile`.`company_name`, `agglobal_userprofile`.`domain`, `agglobal_userprofile`.`introduction`, `agglobal_userprofile`.`job_title`, `agglobal_userprofile`.`personal_profile`, `agglobal_userprofile`.`city`, `agglobal_userprofile`.`country`, `agglobal_userprofile`.`industry`, `agglobal_userprofile`.`industryofconcern`, `agglobal_userprofile`.`profession`, `agglobal_userprofile`.`profile_img`, `agglobal_userprofile`.`activation_key`, `agglobal_userprofile`.`key_expires`, `agglobal_userprofile`.`userid` FROM `agglobal_userprofile` WHERE `agglobal_userprofile`.`userid` = 151; args=(151,)
[19/Oct/2015 05:19:36] WARNING [django.request:170] Not Found: /agglobal/investors/images/team-member-1.jpg
