[15/Sep/2015 03:42:15] DEBUG [django.db.backends:89] (0.000) SET SQL_AUTO_IS_NULL = 0; args=None
[15/Sep/2015 03:42:15] DEBUG [django.db.backends:89] (0.002) SELECT `auth_user`.`id`, `auth_user`.`password`, `auth_user`.`last_login`, `auth_user`.`is_superuser`, `auth_user`.`username`, `auth_user`.`first_name`, `auth_user`.`last_name`, `auth_user`.`email`, `auth_user`.`is_staff`, `auth_user`.`is_active`, `auth_user`.`date_joined` FROM `auth_user` WHERE `auth_user`.`id` = 45; args=(45,)
[15/Sep/2015 03:42:15] DEBUG [django.db.backends:89] (0.002) SELECT (1) AS `a` FROM `agglobal_userprofile` WHERE `agglobal_userprofile`.`userid` = 45 LIMIT 1; args=(45,)
[15/Sep/2015 03:42:15] DEBUG [django.db.backends:89] (0.002) SELECT `agglobal_userprofile`.`user_profile_id`, `agglobal_userprofile`.`first_name`, `agglobal_userprofile`.`last_name`, `agglobal_userprofile`.`email`, `agglobal_userprofile`.`company_name`, `agglobal_userprofile`.`domain`, `agglobal_userprofile`.`introduction`, `agglobal_userprofile`.`job_title`, `agglobal_userprofile`.`personal_profile`, `agglobal_userprofile`.`city`, `agglobal_userprofile`.`country`, `agglobal_userprofile`.`industry`, `agglobal_userprofile`.`industryofconcern`, `agglobal_userprofile`.`profession`, `agglobal_userprofile`.`profile_img`, `agglobal_userprofile`.`activation_key`, `agglobal_userprofile`.`key_expires`, `agglobal_userprofile`.`userid` FROM `agglobal_userprofile` WHERE `agglobal_userprofile`.`userid` = 45; args=(45,)
[15/Sep/2015 03:42:15] DEBUG [django.db.backends:89] (0.002) SELECT `agglobal_user_exp`.`id`, `agglobal_user_exp`.`company_name`, `agglobal_user_exp`.`job_title`, `agglobal_user_exp`.`description`, `agglobal_user_exp`.`location`, `agglobal_user_exp`.`start_year`, `agglobal_user_exp`.`start_month`, `agglobal_user_exp`.`end_year`, `agglobal_user_exp`.`end_month`, `agglobal_user_exp`.`attached_file`, `agglobal_user_exp`.`user_id` FROM `agglobal_user_exp` WHERE `agglobal_user_exp`.`user_id` = 9; args=(9,)
[15/Sep/2015 03:42:15] DEBUG [django.db.backends:89] (0.002) SELECT `agglobal_userprofile`.`user_profile_id`, `agglobal_userprofile`.`first_name`, `agglobal_userprofile`.`last_name`, `agglobal_userprofile`.`email`, `agglobal_userprofile`.`company_name`, `agglobal_userprofile`.`domain`, `agglobal_userprofile`.`introduction`, `agglobal_userprofile`.`job_title`, `agglobal_userprofile`.`personal_profile`, `agglobal_userprofile`.`city`, `agglobal_userprofile`.`country`, `agglobal_userprofile`.`industry`, `agglobal_userprofile`.`industryofconcern`, `agglobal_userprofile`.`profession`, `agglobal_userprofile`.`profile_img`, `agglobal_userprofile`.`activation_key`, `agglobal_userprofile`.`key_expires`, `agglobal_userprofile`.`userid` FROM `agglobal_userprofile` WHERE `agglobal_userprofile`.`userid` = 45; args=(45,)
[15/Sep/2015 03:42:15] DEBUG [django.db.backends:89] (0.002) SELECT `agglobal_investorprofile`.`investor_id`, `agglobal_investorprofile`.`first_name`, `agglobal_investorprofile`.`last_name`, `agglobal_investorprofile`.`email`, `agglobal_investorprofile`.`country`, `agglobal_investorprofile`.`city`, `agglobal_investorprofile`.`industryofconcern`, `agglobal_investorprofile`.`company_name`, `agglobal_investorprofile`.`job_title`, `agglobal_investorprofile`.`profession`, `agglobal_investorprofile`.`industry`, `agglobal_investorprofile`.`introduction`, `agglobal_investorprofile`.`personal_profile`, `agglobal_investorprofile`.`profile_img`, `agglobal_investorprofile`.`investment_field`, `agglobal_investorprofile`.`investment_location`, `agglobal_investorprofile`.`investment_budget`, `agglobal_investorprofile`.`investment_angel_status`, `agglobal_investorprofile`.`investment_pre_a_status`, `agglobal_investorprofile`.`investment_a_status`, `agglobal_investorprofile`.`investment_b_status`, `agglobal_investorprofile`.`investment_b_after_status`, `agglobal_investorprofile`.`activation_key`, `agglobal_investorprofile`.`key_expires`, `agglobal_investorprofile`.`userid` FROM `agglobal_investorprofile` WHERE `agglobal_investorprofile`.`userid` = 45; args=(45,)
[15/Sep/2015 03:42:15] DEBUG [django.db.backends:89] (0.002) SELECT `auth_user`.`id`, `auth_user`.`password`, `auth_user`.`last_login`, `auth_user`.`is_superuser`, `auth_user`.`username`, `auth_user`.`first_name`, `auth_user`.`last_name`, `auth_user`.`email`, `auth_user`.`is_staff`, `auth_user`.`is_active`, `auth_user`.`date_joined` FROM `auth_user` WHERE `auth_user`.`id` = 45; args=(45,)
[15/Sep/2015 03:42:15] DEBUG [django.db.backends:89] (0.001) SELECT `agglobal_user_rel`.`id`, `agglobal_user_rel`.`from_user_id`, `agglobal_user_rel`.`to_user_id`, `agglobal_user_rel`.`from_user_type`, `agglobal_user_rel`.`to_user_type`, `agglobal_user_rel`.`like`, `agglobal_user_rel`.`follow` FROM `agglobal_user_rel` WHERE (`agglobal_user_rel`.`to_user_id` = 45 AND `agglobal_user_rel`.`from_user_id` = 45); args=(45, 45)
[15/Sep/2015 03:42:15] DEBUG [django.db.backends:89] (0.002) SELECT `auth_user`.`id`, `auth_user`.`password`, `auth_user`.`last_login`, `auth_user`.`is_superuser`, `auth_user`.`username`, `auth_user`.`first_name`, `auth_user`.`last_name`, `auth_user`.`email`, `auth_user`.`is_staff`, `auth_user`.`is_active`, `auth_user`.`date_joined` FROM `auth_user` WHERE `auth_user`.`id` = 45; args=(45,)
[15/Sep/2015 03:42:15] DEBUG [django.db.backends:89] (0.001) SELECT `agglobal_user_rel`.`id`, `agglobal_user_rel`.`from_user_id`, `agglobal_user_rel`.`to_user_id`, `agglobal_user_rel`.`from_user_type`, `agglobal_user_rel`.`to_user_type`, `agglobal_user_rel`.`like`, `agglobal_user_rel`.`follow` FROM `agglobal_user_rel` WHERE (`agglobal_user_rel`.`to_user_id` = 45 AND `agglobal_user_rel`.`like` = 'T'); args=(45, 'T')
